Division,WeightClassKg,Place,Name,Team,BodyweightKg,Best3SquatKg,Best3BenchKg,Best3DeadliftKg,TotalKg,Equipment,Event,Sex,BirthDate
Boys,51.71,1,Damion Gonzales,Lockney,50.44,183.7,102.06,156.49,442.25,Single-ply,SBD,M,
Boys,51.71,2,Devin Russell,Olton,51.26,95.25,63.5,131.54,290.3,Single-ply,SBD,M,
Boys,51.71,3,Jaime Reyna,Olton,42.82,70.31,52.16,102.06,224.53,Single-ply,SBD,M,
Boys,51.71,4,Joe Zermeno,Olton,46.45,72.57,52.16,99.79,224.53,Single-ply,SBD,M,
Boys,55.79,1,Xayvion Gonzalez,Dimmitt,55.07,111.13,70.31,106.59,288.03,Single-ply,SBD,M,
Boys,59.87,1,Bryan Tarango,Dimmitt,58.6,133.81,70.31,156.49,360.61,Single-ply,SBD,M,
Boys,59.87,2,Jason Granillo,Olton,57.42,113.4,70.31,140.61,324.32,Single-ply,SBD,M,
Boys,59.87,3,Lizandro Rocha,Dimmitt,58.69,106.59,65.77,133.81,306.17,Single-ply,SBD,M,
Boys,59.87,4,Victor Avendando,Olton,56.79,86.18,65.77,136.08,288.03,Single-ply,SBD,M,
Boys,67.13,1,Gabriel Reyes,Dimmitt,61.14,149.69,92.99,192.78,435.45,Single-ply,SBD,M,
Boys,67.13,2,Diego Gallegos,Olton,63.5,136.08,86.18,163.29,385.55,Single-ply,SBD,M,
Boys,67.13,3,Jorge Bo Hernandez,Dimmitt,63.14,131.54,72.57,154.22,358.34,Single-ply,SBD,M,
Boys,67.13,4,Felix Gonzales,Lockney,63.5,133.81,68.04,142.88,344.73,Single-ply,SBD,M,
Boys,67.13,5,Gage Graves,Lockney,62.14,106.59,68.04,124.74,299.37,Single-ply,SBD,M,
Boys,67.13,DQ,Morris Salas,Lockney,67.13,,,,,Single-ply,SBD,M,
Boys,67.13,DQ,Sedric Mirelez,Dimmitt,65.23,,,,,Single-ply,SBD,M,
Boys,74.84,1,Sabian Martinez,Dimmitt,71.67,165.56,113.4,158.76,437.72,Single-ply,SBD,M,
Boys,74.84,2,Damian Marquez,Olton,72.85,131.54,120.2,176.9,428.64,Single-ply,SBD,M,
Boys,74.84,DQ,William VanZee,Dimmitt,72.48,,,,,Single-ply,SBD,M,
Boys,82.1,1,Nathan Ceniceros,Lockney,78.56,149.69,106.59,213.19,469.47,Single-ply,SBD,M,
Boys,82.1,2,Grady Roberts,Olton,80.1,145.15,117.93,176.9,439.98,Single-ply,SBD,M,
Boys,82.1,3,Damian Arriaga,Dimmitt,81.01,158.76,102.06,167.83,428.64,Single-ply,SBD,M,
Boys,82.1,4,Angel Catalan,Dimmitt,80.2,117.93,90.72,151.95,360.61,Single-ply,SBD,M,
Boys,82.1,5,Eszequiel Vidal,Dimmitt,79.38,127.01,86.18,142.88,356.07,Single-ply,SBD,M,
Boys,89.81,1,Abraham Loeza,Dimmitt,86.55,161.03,115.67,179.17,455.86,Single-ply,SBD,M,
Boys,89.81,DQ,Sergio Ramos,Dimmitt,87.91,,,,,Single-ply,SBD,M,
Boys,99.79,1,Gerardo Gonzalez,Dimmitt,93.8,213.19,108.86,249.48,571.53,Single-ply,SBD,M,
Boys,99.79,2,Matthew Lopez,Dimmitt,92.71,163.29,106.59,142.88,412.77,Single-ply,SBD,M,
Boys,99.79,3,Adolfo Garcia,Olton,94.62,122.47,81.65,151.95,356.07,Single-ply,SBD,M,
Boys,109.77,1,Masen Rehkopf,Lockney,106.05,136.08,106.59,136.08,378.75,Single-ply,SBD,M,
Boys,109.77,2,Jasiah Tavarez,Dimmitt,101.7,115.67,68.04,140.61,324.32,Single-ply,SBD,M,
Boys,139.71,1,Caden Pritchard,Lockney,135.08,181.44,136.08,174.63,492.15,Single-ply,SBD,M,
Boys,,NS,Jordan Casas,Dimmitt,,,,,,Single-ply,SBD,M,
Boys,,NS,Eric Valencia,Olton,,,,,,Single-ply,SBD,M,
Boys,,NS,Jeremiah Rosales,Lockney,,,,,,Single-ply,SBD,M,
Boys,,NS,Joshua Granillo,Olton,,,,,,Single-ply,SBD,M,
