Division,WeightClassKg,Place,Name,Team,BodyweightKg,Best3SquatKg,Best3BenchKg,Best3DeadliftKg,TotalKg,Equipment,Event,Sex,BirthDate
Boys,51.71,1,Sam O'Brien,Clyde,51.17,108.86,65.77,129.27,303.91,Single-ply,SBD,M,
Boys,51.71,2,Ethan Rake,Tuscola Jim Ned,50.71,95.25,58.97,122.47,276.69,Single-ply,SBD,M,
Boys,51.71,3,Jake Stone,Clyde,42.37,102.06,90.72,65.77,258.55,Single-ply,SBD,M,
Boys,51.71,4,Adam Perez,De Leon,49.44,83.91,56.7,102.06,242.67,Single-ply,SBD,M,
Boys,51.71,5,Calib Hobbs,Hawley,50.98,61.23,43.09,86.18,190.51,Single-ply,SBD,M,
Boys,51.71,DQ,Tyler Flower,Venus,49.44,111.13,72.57,,,Single-ply,SBD,M,
Boys,55.79,1,Lisandro Ortiz,Dublin,55.79,138.35,83.91,142.88,365.14,Single-ply,SBD,M,
Boys,59.87,1,Mario Pena,De Leon,58.06,142.88,92.99,149.69,385.55,Single-ply,SBD,M,
Boys,59.87,2,Cameron Patton,Dublin,58.97,136.08,99.79,136.08,371.95,Single-ply,SBD,M,
Boys,59.87,3,Kaden Gerhart,Clyde,59.06,115.67,72.57,131.54,319.78,Single-ply,SBD,M,
Boys,59.87,4,Alvaro Sanchez,De Leon,57.52,120.2,72.57,122.47,315.25,Single-ply,SBD,M,
Boys,59.87,5,Adam Spharler,Dublin,58.51,104.33,74.84,136.08,315.25,Single-ply,SBD,M,
Boys,59.87,6,Ethan Stalling,Hawley,58.33,117.93,77.11,117.93,312.98,Single-ply,SBD,M,
Boys,59.87,7,Buck Powell,Hico,59.06,113.4,61.23,106.59,281.23,Single-ply,SBD,M,
Boys,59.87,DQ,Jz Hemphill,Coleman,59.87,108.86,63.5,,,Single-ply,SBD,M,
Boys,59.87,DQ,Lander Callison,De Leon,57.29,108.86,,102.06,,Single-ply,SBD,M,
Boys,67.13,1,Ben Bruce,Hamilton,65.59,145.15,102.06,183.7,430.91,Single-ply,SBD,M,
Boys,67.13,2,Elijah Gonzales,Dublin,66.68,170.1,92.99,163.29,426.38,Single-ply,SBD,M,
Boys,67.13,3,Fabian Gomez,Clyde,62.96,158.76,102.06,158.76,419.57,Single-ply,SBD,M,
Boys,67.13,4,Logan Stein,Tolar,63.32,154.22,106.59,156.49,417.3,Single-ply,SBD,M,
Boys,67.13,5,Alonzo Moreno,Dublin,65.32,165.56,74.84,158.76,399.16,Single-ply,SBD,M,
Boys,67.13,6,James Cecil,Hico,63.96,136.08,95.25,149.69,381.02,Single-ply,SBD,M,
Boys,67.13,7,Triston Flinn,Hico,65.32,136.08,83.91,147.42,367.41,Single-ply,SBD,M,
Boys,67.13,8,Price Mullin,Hico,66.95,136.08,83.91,147.42,367.41,Single-ply,SBD,M,
Boys,67.13,9,Joe Henley,Goldthwaite,64.86,120.2,79.38,142.88,342.46,Single-ply,SBD,M,
Boys,67.13,10,Jason Rainbolt,Hamilton,60.42,115.67,70.31,142.88,328.85,Single-ply,SBD,M,
Boys,67.13,11,Judson Wells,Stephenville,60.78,122.47,77.11,127.01,326.59,Single-ply,SBD,M,
Boys,67.13,12,Aaron Hernandez,Venus,64.95,111.13,83.91,117.93,312.98,Single-ply,SBD,M,
Boys,74.84,1,Avdan Fish,Clyde,74.75,199.58,138.35,226.8,564.72,Single-ply,SBD,M,
Boys,74.84,2,Luis Ordoñez,Dublin,74.84,192.78,138.35,204.12,535.24,Single-ply,SBD,M,
Boys,74.84,3,Dayden Hunter,Coleman,71.94,183.7,142.88,174.63,501.22,Single-ply,SBD,M,
Boys,74.84,4,Denver Hunter,Coleman,73.3,183.7,120.2,179.17,483.08,Single-ply,SBD,M,
Boys,74.84,5,Rhett Bingham,Clyde,70.22,174.63,99.79,192.78,467.2,Single-ply,SBD,M,
Boys,74.84,6,Nathan Rivera-McDuffee,Ballinger,71.4,158.76,113.4,190.51,462.66,Single-ply,SBD,M,
Boys,74.84,7,Reben McPherson,Stephenville,73.84,172.37,102.06,174.63,449.06,Single-ply,SBD,M,
Boys,74.84,8,Aaron Anzua,Goldthwaite,70.22,151.95,113.4,181.44,446.79,Single-ply,SBD,M,
Boys,74.84,9,Harry Cooper,Hawley,73.57,170.1,120.2,142.88,433.18,Single-ply,SBD,M,
Boys,74.84,10,Ethan Estes,Tuscola Jim Ned,72.67,179.17,102.06,147.42,428.64,Single-ply,SBD,M,
Boys,74.84,11,Alex Thiele,Hamilton,71.76,158.76,97.52,158.76,415.04,Single-ply,SBD,M,
Boys,74.84,12,Martin Hernandez,Hawley,74.84,147.42,95.25,163.29,405.97,Single-ply,SBD,M,
Boys,74.84,13,Ty McClure,Tolar,72.67,138.35,88.45,170.1,396.89,Single-ply,SBD,M,
Boys,74.84,14,Conner Gray,Ballinger,71.67,124.74,83.91,174.63,383.29,Single-ply,SBD,M,
Boys,74.84,15,Jovani Cervantes,Dublin,73.48,156.49,68.04,151.95,376.48,Single-ply,SBD,M,
Boys,74.84,16,Jake Pack,Stephenville,74.84,142.88,97.52,136.08,376.48,Single-ply,SBD,M,
Boys,74.84,17,Kayson Bunkley,Hico,68.76,136.08,74.84,136.08,347,Single-ply,SBD,M,
Boys,74.84,18,Kyler Shelton,Goldthwaite,70.13,102.06,81.65,136.08,319.78,Single-ply,SBD,M,
Boys,74.84,19,Kasey Lewis,De Leon,68.49,102.06,70.31,136.08,308.44,Single-ply,SBD,M,
Boys,74.84,20,Luis Ramos,Brady,74.84,102.06,61.23,129.27,292.57,Single-ply,SBD,M,
Boys,74.84,DQ,Jayden Fuentes,Ballinger,73.48,,,,,Single-ply,SBD,M,
Boys,74.84,DQ,Izaac Wood,Hamilton,68.13,,,142.88,,Single-ply,SBD,M,
Boys,74.84,DQ,Michael Guinn,Hico,74.84,115.67,,154.22,,Single-ply,SBD,M,
Boys,82.1,1,Jayden Gross,Venus,79.83,183.7,124.74,195.04,503.49,Single-ply,SBD,M,
Boys,82.1,2,Isaiah Tarr,Brady,81.74,192.78,120.2,190.51,503.49,Single-ply,SBD,M,
Boys,82.1,3,Justin Stephens,Stephenville,78.38,181.44,108.86,210.92,501.22,Single-ply,SBD,M,
Boys,82.1,4,Montgomery McKinnon,Ballinger,82.01,170.1,124.74,174.63,469.47,Single-ply,SBD,M,
Boys,82.1,5,Izik Delgado,Early,78.47,147.42,97.52,165.56,410.5,Single-ply,SBD,M,
Boys,82.1,6,Aiden Knight,Ballinger,81.56,151.95,97.52,158.76,408.23,Single-ply,SBD,M,
Boys,82.1,7,Jimmy Diaz,Coleman,79.56,151.95,90.72,154.22,396.89,Single-ply,SBD,M,
Boys,82.1,8,Connor Bostick,De Leon,77.75,151.95,70.31,142.88,365.14,Single-ply,SBD,M,
Boys,82.1,9,Wyatt Puryear,Coleman,81.28,129.27,79.38,149.69,358.34,Single-ply,SBD,M,
Boys,82.1,10,Brayden Cook,Rising Star,76.57,124.74,81.65,138.35,344.73,Single-ply,SBD,M,
Boys,82.1,11,Luis Garcia,De Leon,78.2,111.13,97.52,124.74,333.39,Single-ply,SBD,M,
Boys,82.1,DQ,Miguel Gonzales,Hamilton,79.83,165.56,,151.95,,Single-ply,SBD,M,
Boys,82.1,DQ,Adrean Martinez,Goldthwaite,76.57,88.45,77.11,,,Single-ply,SBD,M,
Boys,82.1,DQ,Tucker Frieda,Ballinger,77.47,,,,,Single-ply,SBD,M,
Boys,82.1,DQ,Max Getner,Hico,78.47,,65.77,115.67,,Single-ply,SBD,M,
Boys,82.1,DQ,Alexis Perez #3,Venus,81.1,,,108.86,,Single-ply,SBD,M,
Boys,89.81,1,Bernie Ortega,Dublin,89.36,208.65,138.35,219.99,566.99,Single-ply,SBD,M,
Boys,89.81,2,John McClure,Tolar,87.09,197.31,149.69,197.31,544.31,Single-ply,SBD,M,
Boys,89.81,3,Daniel Medina,Ballinger,89.81,206.38,129.27,206.38,542.04,Single-ply,SBD,M,
Boys,89.81,4,Taylor Bennett,Stephenville,89.81,208.65,131.54,199.58,539.77,Single-ply,SBD,M,
Boys,89.81,5,Hezekiah Parker,Hawley,86.64,226.8,122.47,183.7,532.97,Single-ply,SBD,M,
Boys,89.81,6,Isaiah Morales,Venus,86.64,197.31,117.93,206.38,521.63,Single-ply,SBD,M,
Boys,89.81,7,Zachary Canada,Ballinger,83.01,197.31,120.2,183.7,501.22,Single-ply,SBD,M,
Boys,89.81,8,Mateo Dominguez,Venus,89.81,190.51,117.93,188.24,496.68,Single-ply,SBD,M,
Boys,89.81,9,Mitchel Hopper,Goldthwaite,87.09,170.1,122.47,195.04,487.61,Single-ply,SBD,M,
Boys,89.81,10,Caleb Powell,Clyde,85.73,151.95,120.2,181.44,453.59,Single-ply,SBD,M,
Boys,89.81,11,Colton Tuggle,Tolar,88.45,156.49,108.86,156.49,421.84,Single-ply,SBD,M,
Boys,89.81,12,Darby Craig,Hamilton,87.54,142.88,92.99,174.63,410.5,Single-ply,SBD,M,
Boys,89.81,13,Kanyon Willeford,Hawley,86.18,158.76,95.25,140.61,394.63,Single-ply,SBD,M,
Boys,89.81,14,Jaydyn Gonzalez,Dublin,88.9,117.93,86.18,124.74,328.85,Single-ply,SBD,M,
Boys,89.81,DQ,Timothy Boisse,Early,88.45,,,154.22,,Single-ply,SBD,M,
Boys,89.81,DQ,Enrique Garcia,Venus,87.54,,,,,Single-ply,SBD,M,
Boys,99.79,1,Michael Stanley,Dublin,99.79,229.06,172.37,224.53,625.96,Single-ply,SBD,M,
Boys,99.79,2,Landyn McIntyre,Ballinger,98.88,229.06,149.69,231.33,610.08,Single-ply,SBD,M,
Boys,99.79,3,Brooks Clippinger,Early,98.07,226.8,133.81,217.72,578.33,Single-ply,SBD,M,
Boys,99.79,4,Jovani Tamayo,Venus,95.71,206.38,151.95,204.12,562.45,Single-ply,SBD,M,
Boys,99.79,5,Morgan Bryan,Clyde,98.88,226.8,136.08,192.78,555.65,Single-ply,SBD,M,
Boys,99.79,6,Ethan Adkins,Clyde,99.79,204.12,92.99,213.19,510.29,Single-ply,SBD,M,
Boys,99.79,7,Mason Berry,Tolar,94.8,183.7,113.4,192.78,489.88,Single-ply,SBD,M,
Boys,99.79,8,Ezequiel Munoz,Coleman,95.25,195.04,120.2,156.49,471.74,Single-ply,SBD,M,
Boys,99.79,9,Rafay Ravjani,Stephenville,97.07,183.7,113.4,174.63,471.74,Single-ply,SBD,M,
Boys,99.79,10,Andrew Sherril,Venus,92.99,174.63,90.72,174.63,439.98,Single-ply,SBD,M,
Boys,99.79,11,Richie Morales,Hico,94.8,147.42,92.99,142.88,383.29,Single-ply,SBD,M,
Boys,99.79,12,Terrell Haney,Ballinger,90.72,113.4,92.99,161.03,367.41,Single-ply,SBD,M,
Boys,99.79,13,Hunter Smith,Clyde,96.16,124.74,79.38,158.76,362.87,Single-ply,SBD,M,
Boys,99.79,14,Logan Ratliff,Rising Star,99.79,115.67,52.16,120.2,288.03,Single-ply,SBD,M,
Boys,99.79,DQ,Adam Carrion,Tuscola Jim Ned,93.89,154.22,99.79,,,Single-ply,SBD,M,
Boys,109.77,1,Tyler McGowan,Tolar,105.69,181.44,140.61,199.58,521.63,Single-ply,SBD,M,
Boys,109.77,2,Billy Deel,Clyde,108.86,201.85,124.74,181.44,508.02,Single-ply,SBD,M,
Boys,109.77,3,Dakota Webb,Tolar,105.69,197.31,122.47,183.7,503.49,Single-ply,SBD,M,
Boys,109.77,4,Carson Marquess,Hamilton,103.87,183.7,102.06,215.46,501.22,Single-ply,SBD,M,
Boys,109.77,5,Ron Ramirez,Hamilton,103.87,201.85,106.59,183.7,492.15,Single-ply,SBD,M,
Boys,109.77,6,Jaydon Tatum,Hawley,108.86,163.29,117.93,192.78,474,Single-ply,SBD,M,
Boys,109.77,7,Adrian Ruiz,Hico,105.23,163.29,113.4,149.69,426.38,Single-ply,SBD,M,
Boys,109.77,8,Hayden Martin,Stephenville,103.42,172.37,97.52,154.22,424.11,Single-ply,SBD,M,
Boys,109.77,9,Owen Tyson,Hamilton,109.5,151.95,108.86,154.22,415.04,Single-ply,SBD,M,
Boys,109.77,10,Klayton Smith,Stephenville,100.7,129.27,70.31,149.69,349.27,Single-ply,SBD,M,
Boys,109.77,11,Logan Sherrard,De Leon,109.77,117.93,79.38,136.08,333.39,Single-ply,SBD,M,
Boys,109.77,12,Aiden Tepetate,De Leon,105.51,120.2,79.38,129.27,328.85,Single-ply,SBD,M,
Boys,109.77,DQ,Oscar Camacho,Coleman,101.6,226.8,,217.72,,Single-ply,SBD,M,
Boys,109.77,DQ,Wes Griffin,Hamilton,108.86,170.1,,,,Single-ply,SBD,M,
Boys,109.77,DQ,Brayden Coan,Tolar,109.77,206.38,,181.44,,Single-ply,SBD,M,
Boys,109.77,DQ,Jaime Gonzalez,Venus,104.78,210.92,,,,Single-ply,SBD,M,
Boys,124.74,1,Noah Powell,Tuscola Jim Ned,115.21,244.94,124.74,247.21,616.89,Single-ply,SBD,M,
Boys,124.74,2,Juan Leon,Brady,114.76,226.8,158.76,224.53,610.08,Single-ply,SBD,M,
Boys,124.74,3,Jose Najera,Hamilton,115.21,249.48,161.03,192.78,603.28,Single-ply,SBD,M,
Boys,124.74,4,Mason Butchee,Stephenville,118.39,217.72,165.56,206.38,589.67,Single-ply,SBD,M,
Boys,124.74,5,Tyler Tucker,Stephenville,114.76,244.94,142.88,183.7,571.53,Single-ply,SBD,M,
Boys,124.74,6,Benjamin Fulton,Early,120.75,204.12,151.95,165.56,521.63,Single-ply,SBD,M,
Boys,124.74,7,Ruben Silva,De Leon,116.21,170.1,131.54,181.44,483.08,Single-ply,SBD,M,
Boys,124.74,8,Nic Adams,Hamilton,116.12,172.37,83.91,172.37,428.64,Single-ply,SBD,M,
Boys,124.74,9,Brody Newton,Bangs,124.28,158.76,106.59,149.69,415.04,Single-ply,SBD,M,
Boys,124.74,10,Blake Kennedy,Coleman,113.4,136.08,111.13,149.69,396.89,Single-ply,SBD,M,
Boys,124.74,11,Aiden Hernandez,Coleman,113.85,140.61,95.25,127.01,362.87,Single-ply,SBD,M,
Boys,139.71,1,Jeryd Fain,Coleman,125.55,272.16,158.76,215.46,646.37,Single-ply,SBD,M,
Boys,139.71,2,Markus Castleberry,Ballinger,128.82,226.8,156.49,195.04,578.33,Single-ply,SBD,M,
Boys,139.71,3,Adam McCoy,Goldthwaite,133.81,204.12,138.35,190.51,532.97,Single-ply,SBD,M,
Boys,139.71,4,Joe Leal,De Leon,125.46,170.1,136.08,185.97,492.15,Single-ply,SBD,M,
Boys,139.71,5,Eddy Hernandez,Dublin,137.89,174.63,111.13,174.63,460.4,Single-ply,SBD,M,
Boys,139.71+,1,Logan Davis,Stephenville,149.69,235.87,151.95,272.16,659.98,Single-ply,SBD,M,
Boys,139.71+,2,Gavyn Sharp,Stephenville,144.7,238.14,142.88,215.46,596.47,Single-ply,SBD,M,
Boys,,NS,Luke Burson,Clyde,,,,,,Single-ply,SBD,M,
