Division,WeightClassKg,Place,Name,Team,BodyweightKg,Best3SquatKg,Best3BenchKg,Best3DeadliftKg,TotalKg,Equipment,Event,Sex
Boys,51.71,1,Josue Leon,Sulphur Springs,50.8,176.9,74.84,176.9,428.64,Single-ply,SBD,M
Boys,51.71,2,Devin Lasenby,Paris North Lamar,49.9,165.56,90.72,131.54,387.82,Single-ply,SBD,M
Boys,51.71,3,Ja'Vonta Mitchell,Greenville,47.63,122.47,52.16,120.2,294.84,Single-ply,SBD,M
Boys,51.71,4,Ryder Brock,Detroit,51.71,111.13,58.97,124.74,294.84,Single-ply,SBD,M
Boys,51.71,5,Austin Puetz,Paris,51.71,95.25,56.7,124.74,276.69,Single-ply,SBD,M
Boys,55.79,6,James Kitchens,Commerce,51.94,92.99,47.63,111.13,251.74,Single-ply,SBD,M
Boys,51.71,7,Mauricio Cadena,Commerce,49.9,79.38,49.9,92.99,222.26,Single-ply,SBD,M
Boys,51.71,DQ,Scott Dudley,Paris,51.71,70.31,,,,Single-ply,SBD,M
Boys,55.79,1,Luis Gomez,Sulphur Springs,55.79,147.42,79.38,142.88,369.68,Single-ply,SBD,M
Boys,55.79,2,Jesse Ortiz,Sulphur Springs,52.62,140.61,72.57,138.35,351.53,Single-ply,SBD,M
Boys,55.79,3,Dalton Krodle,Commerce,55.57,124.74,72.57,127.01,324.32,Single-ply,SBD,M
Boys,55.79,4,Andrew Legrand,Texarkana Texas,55.79,113.4,68.04,117.93,299.37,Single-ply,SBD,M
Boys,67.13,1,Eric Stanfield,Greenville,60.1,170.1,88.45,154.22,412.77,Single-ply,SBD,M
Boys,67.13,2,Samuel Hammons,Sulphur Springs,60.1,154.22,83.91,163.29,401.43,Single-ply,SBD,M
Boys,59.87,3,DeArius Mitchell,Greenville,58.51,167.83,77.11,154.22,399.16,Single-ply,SBD,M
Boys,59.87,4,Ta'Montre Mitchell,Greenville,56.7,156.49,79.38,127.01,362.87,Single-ply,SBD,M
Boys,59.87,5,Jared Mathews,Paris Chisum,58.51,124.74,77.11,140.61,342.46,Single-ply,SBD,M
Boys,59.87,DQ,Brayden Holley,Greenville,58.97,108.86,,,,Single-ply,SBD,M
Boys,67.13,1,Clem Bailey,Paris,66.68,190.51,138.35,201.85,530.7,Single-ply,SBD,M
Boys,67.13,2,Alfred Champion,Greenville,63.5,199.58,97.52,181.44,478.54,Single-ply,SBD,M
Boys,67.13,3,Dondrell Hawkins,Paris,67.13,183.7,99.79,174.63,458.13,Single-ply,SBD,M
Boys,67.13,4,Jeremy Armstrong,Rockwall-Heath,63.5,179.17,92.99,183.7,455.86,Single-ply,SBD,M
Boys,67.13,5,Chris Stephens,Sherman,66.68,192.78,81.65,167.83,442.25,Single-ply,SBD,M
Boys,67.13,6,Grant Kilcrease,Paris North Lamar,67.13,140.61,88.45,181.44,410.5,Single-ply,SBD,M
Boys,67.13,7,Rashad Johnson,Rockwall-Heath,65.77,136.08,102.06,163.29,401.43,Single-ply,SBD,M
Boys,67.13,8,Wesley McCrary,Greenville,62.6,149.69,90.72,151.95,392.36,Single-ply,SBD,M
Boys,67.13,9,Jacob Mitchell,Greenville,67.13,151.95,92.99,142.88,387.82,Single-ply,SBD,M
Boys,67.13,10,Kaleb Stringer,Paris North Lamar,66.68,158.76,74.84,147.42,381.02,Single-ply,SBD,M
Boys,67.13,11,Deveion Fuentez,Sulphur Springs,63.96,147.42,79.38,147.42,374.21,Single-ply,SBD,M
Boys,67.13,12,Tyler Murphy,Commerce,60.78,149.69,68.04,149.69,367.41,Single-ply,SBD,M
Boys,67.13,13,Joshus McCarver,Detroit,61.23,108.86,70.31,102.06,281.23,Single-ply,SBD,M
Boys,67.13,14,Keith Dowd,Texarkana Texas,64.41,92.99,56.7,124.74,274.42,Single-ply,SBD,M
Boys,74.84,DQ,Dadrian Smith,Sulphur Springs,67.36,,,,,Single-ply,SBD,M
Boys,67.13,DQ,Justin Weeks,Ore City,67.13,,61.23,165.56,,Single-ply,SBD,M
Boys,74.84,1,Austin Martin #3,Greenville,73.48,249.48,138.35,226.8,614.62,Single-ply,SBD,M
Boys,74.84,2,Dominick Sanders,Paris,74.39,219.99,124.74,242.67,587.4,Single-ply,SBD,M
Boys,74.84,3,Johnathon Carlisle,Sulphur Springs,72.57,215.46,117.93,217.72,551.11,Single-ply,SBD,M
Boys,74.84,4,Cameron Williams #10,Sherman,73.03,190.51,113.4,217.72,521.63,Single-ply,SBD,M
Boys,74.84,5,Bacardi Clark,Forney,74.39,204.12,102.06,213.19,519.36,Single-ply,SBD,M
Boys,74.84,6,Marcus Cantera,Commerce,74.84,183.7,124.74,190.51,498.95,Single-ply,SBD,M
Boys,74.84,7,Tayelor Doty,Greenville,74.39,181.44,120.2,165.56,467.2,Single-ply,SBD,M
Boys,74.84,8,Treylon Taylor,Sherman,73.48,165.56,108.86,190.51,464.93,Single-ply,SBD,M
Boys,74.84,9,Kidarius Corprew,Paris,73.03,190.51,95.25,170.1,455.86,Single-ply,SBD,M
Boys,74.84,10,Chance Kelly,Paris North Lamar,73.48,147.42,106.59,183.7,437.72,Single-ply,SBD,M
Boys,74.84,11,Samuel Pitts,Paris Chisum,72.12,158.76,88.45,174.63,421.84,Single-ply,SBD,M
Boys,74.84,12,Ethan Jordan,Ore City,72.12,170.1,99.79,149.69,419.57,Single-ply,SBD,M
Boys,74.84,13,Matthew Vaughn,Mount Pleasant,74.84,151.95,102.06,165.56,419.57,Single-ply,SBD,M
Boys,74.84,14,Travis Bryant,Detroit,69.85,156.49,74.84,172.37,403.7,Single-ply,SBD,M
Boys,74.84,15,LaDarius Craddock,Mount Pleasant,74.84,154.22,97.52,151.95,403.7,Single-ply,SBD,M
Boys,74.84,16,Troy Hoover,Forney,71.67,154.22,72.57,147.42,374.21,Single-ply,SBD,M
Boys,74.84,17,Chris Alphin,Wolfe City,70.31,136.08,83.91,147.42,367.41,Single-ply,SBD,M
Boys,74.84,18,Mikel Tharp,Detroit,69.85,136.08,79.38,149.69,365.14,Single-ply,SBD,M
Boys,74.84,19,Ray Wallace,Daingerfield,73.03,145.15,74.84,136.08,356.07,Single-ply,SBD,M
Boys,74.84,20,David Thompson,Mount Pleasant,69.4,120.2,70.31,145.15,335.66,Single-ply,SBD,M
Boys,74.84,21,Michael Craig,Paris Chisum,72.57,104.33,72.57,133.81,310.71,Single-ply,SBD,M
Boys,74.84,22,Kendall Alexander,Paris,73.48,92.99,52.16,120.2,265.35,Single-ply,SBD,M
Boys,74.84,DQ,Keith Henderson,Detroit,74.84,,61.23,136.08,,Single-ply,SBD,M
Boys,74.84,DQ,Brandon Crawford,Detroit,73.48,,68.04,147.42,,Single-ply,SBD,M
Boys,74.84,DQ,Toby Moss,Detroit,69.4,,,,,Single-ply,SBD,M
Boys,74.84,DQ,Brenton Pentecost,Paris North Lamar,70.76,140.61,83.91,,,Single-ply,SBD,M
Boys,74.84,DQ,Torey Long,Sherman,73.94,,,,,Single-ply,SBD,M
Boys,82.1,1,ShaCody Williams,Sherman,77.11,213.19,127.01,213.19,553.38,Single-ply,SBD,M
Boys,82.1,2,Maverick Jones,Paris North Lamar,80.29,217.72,124.74,208.65,551.11,Single-ply,SBD,M
Boys,82.1,3,Bryce Sanford,Canton,80.29,229.06,129.27,190.51,548.85,Single-ply,SBD,M
Boys,82.1,4,Jamarlon Brown,Mount Pleasant,80.74,192.78,120.2,195.04,508.02,Single-ply,SBD,M
Boys,82.1,5,Reece Sumner,Canton,79.83,199.58,106.59,199.58,505.76,Single-ply,SBD,M
Boys,82.1,6,Dedric Smith,Sulphur Springs,78.02,183.7,106.59,208.65,498.95,Single-ply,SBD,M
Boys,82.1,7,Tom Paolucci,Texarkana Texas,77.11,181.44,111.13,176.9,469.47,Single-ply,SBD,M
Boys,82.1,8,Clay Wilkerson,Rockwall-Heath,80.29,172.37,102.06,183.7,458.13,Single-ply,SBD,M
Boys,82.1,9,Austin Cooper #4,Greenville,82.1,181.44,102.06,174.63,458.13,Single-ply,SBD,M
Boys,82.1,10,Parker Wood,Rockwall-Heath,82.1,142.88,95.25,181.44,419.57,Single-ply,SBD,M
Boys,82.1,11,Jorge Martinez,Mount Pleasant,77.11,154.22,90.72,156.49,401.43,Single-ply,SBD,M
Boys,82.1,12,Tristan McClure,Paris,78.02,140.61,68.04,156.49,365.14,Single-ply,SBD,M
Boys,82.1,DQ,Cody Edwards,Paris North Lamar,76.66,165.56,,,,Single-ply,SBD,M
Boys,82.1,DQ,Stephen Duncan,Sherman,77.56,167.83,,,,Single-ply,SBD,M
Boys,82.1,DQ,Isaiah Martinez,Commerce,79.38,219.99,,,,Single-ply,SBD,M
Boys,82.1,DQ,Michael Murphy,Detroit,77.56,,,,,Single-ply,SBD,M
Boys,89.81,1,Ty Smith,Paris North Lamar,82.55,267.62,147.42,242.67,657.71,Single-ply,SBD,M
Boys,89.81,2,Travis Turner,Texarkana Texas,83.01,272.16,142.88,226.8,641.83,Single-ply,SBD,M
Boys,89.81,3,Trey Adair,Sulphur Springs,84.37,222.26,138.35,195.04,555.65,Single-ply,SBD,M
Boys,89.81,4,Andrew Chirwa,Texarkana Texas,89.81,224.53,120.2,174.63,519.36,Single-ply,SBD,M
Boys,89.81,5,Blake Westbrook,Detroit,87.54,192.78,111.13,192.78,496.68,Single-ply,SBD,M
Boys,89.81,6,Cipriano Gonzales,Greenville,89.81,181.44,124.74,181.44,487.61,Single-ply,SBD,M
Boys,89.81,7,Preston Powell,Forney,86.18,179.17,113.4,185.97,478.54,Single-ply,SBD,M
Boys,89.81,8,Garrett Westphal,Rockwall-Heath,89.36,170.1,113.4,192.78,476.27,Single-ply,SBD,M
Boys,89.81,9,Jaylon Rutherford,Texarkana Texas,88.45,174.63,106.59,151.95,433.18,Single-ply,SBD,M
Boys,89.81,10,Logan Thompson,Canton,86.18,158.76,79.38,147.42,385.55,Single-ply,SBD,M
Boys,89.81,11,Ethan England,Paris,86.64,136.08,70.31,158.76,365.14,Single-ply,SBD,M
Boys,89.81,12,Joseph Winton,Paris North Lamar,86.18,124.74,79.38,142.88,347,Single-ply,SBD,M
Boys,89.81,13,Will Anderson,Mount Pleasant,89.81,113.4,90.72,129.27,333.39,Single-ply,SBD,M
Boys,89.81,14,Daryl Bennett,Paris Chisum,89.81,95.25,77.11,129.27,301.64,Single-ply,SBD,M
Boys,89.81,DQ,Seth Spangler,Paris Chisum,84.82,90.72,,,,Single-ply,SBD,M
Boys,99.79,DQ,Braylon Champion,Greenville,90.04,176.9,,,,Single-ply,SBD,M
Boys,99.79,1,Dq Lipscomb,Paris,90.72,265.35,154.22,274.42,694,Single-ply,SBD,M
Boys,99.79,2,Blake McCown,Texarkana Texas,92.53,222.26,133.81,238.14,594.21,Single-ply,SBD,M
Boys,99.79,3,Jon Boehlar,Paris Chisum,94.8,217.72,151.95,222.26,591.94,Single-ply,SBD,M
Boys,99.79,4,Anthony Hambric #1,Forney,95.25,229.06,142.88,215.46,587.4,Single-ply,SBD,M
Boys,99.79,5,Christian Stewart,Forney,97.07,213.19,142.88,229.06,585.13,Single-ply,SBD,M
Boys,99.79,6,KaLynn Miller,Paris Chisum,96.16,226.8,149.69,204.12,580.6,Single-ply,SBD,M
Boys,99.79,7,Derrek Clayton,Sherman,97.52,231.33,108.86,192.78,532.97,Single-ply,SBD,M
Boys,99.79,8,Alejandro Barajas,Mount Pleasant,98.43,204.12,117.93,199.58,521.63,Single-ply,SBD,M
Boys,99.79,9,Chance Hamilton,Greenville,92.08,183.7,124.74,190.51,498.95,Single-ply,SBD,M
Boys,99.79,10,Levi Wooten,Wolfe City,99.79,183.7,142.88,163.29,489.88,Single-ply,SBD,M
Boys,99.79,11,Geoffrey Smith,Paris,91.17,163.29,95.25,197.31,455.86,Single-ply,SBD,M
Boys,99.79,12,Eric Dickey,Paris North Lamar,96.16,170.1,106.59,170.1,446.79,Single-ply,SBD,M
Boys,99.79,13,William Jamar,Paris North Lamar,96.62,170.1,97.52,176.9,444.52,Single-ply,SBD,M
Boys,99.79,14,Cody Ray,Forney,99.79,172.37,88.45,172.37,433.18,Single-ply,SBD,M
Boys,99.79,15,Brandon Ramirez #2,Commerce,92.99,165.56,97.52,158.76,421.84,Single-ply,SBD,M
Boys,99.79,DQ,James Walker #5,Sherman,99.79,,,,,Single-ply,SBD,M
Boys,109.77,1,Tyran Wilson,Commerce,109.77,208.65,133.81,222.26,564.72,Single-ply,SBD,M
Boys,109.77,2,James Hanson,Mount Pleasant,107.05,174.63,102.06,204.12,480.81,Single-ply,SBD,M
Boys,109.77,3,Fernando Rodriguez,Daingerfield,105.23,197.31,115.67,165.56,478.54,Single-ply,SBD,M
Boys,109.77,4,Clayton Amendson,Forney,107.5,167.83,106.59,181.44,455.86,Single-ply,SBD,M
Boys,109.77,5,Zach Spurgin,Greenville,103.87,174.63,108.86,158.76,442.25,Single-ply,SBD,M
Boys,109.77,6,Devon Hargrove,Mount Pleasant,101.6,161.03,97.52,156.49,415.04,Single-ply,SBD,M
Boys,109.77,7,Casey Bishop,Forney,109.77,136.08,79.38,151.95,367.41,Single-ply,SBD,M
Boys,109.77,8,Ke'Adric Nelson,Canton,107.95,208.65,122.47,,331.12,Single-ply,SB,M
Boys,109.77,DQ,Dustin Jones,Daingerfield,103.87,,,,,Single-ply,SB,M
Boys,124.74,1,Ethan Dobbs,Rockwall-Heath,118.84,265.35,156.49,235.87,657.71,Single-ply,SBD,M
Boys,124.74,2,Jake Holliman,Rockwall-Heath,115.21,265.35,136.08,244.94,646.37,Single-ply,SBD,M
Boys,124.74,3,Jorge Rodriguez,Greenville,120.2,251.74,151.95,226.8,630.49,Single-ply,SBD,M
Boys,124.74,4,Evan Higbee,Rockwall-Heath,114.76,238.14,133.81,244.94,616.89,Single-ply,SBD,M
Boys,124.74,5,Justin Lewis,Texarkana Texas,117.03,238.14,142.88,233.6,614.62,Single-ply,SBD,M
Boys,124.74,6,Marquis Gill,Paris,118.84,233.6,154.22,213.19,601.01,Single-ply,SBD,M
Boys,124.74,7,Ryan Raney,Wolfe City,123.83,215.46,156.49,204.12,576.06,Single-ply,SBD,M
Boys,124.74,8,Brandon Phillips,Paris,118.84,233.6,142.88,197.31,573.79,Single-ply,SBD,M
Boys,124.74,9,Alex Ellis #1,Texarkana Texas,112.04,213.19,108.86,199.58,521.63,Single-ply,SBD,M
Boys,124.74,10,Matt Price,Forney,115.21,185.97,102.06,195.04,483.08,Single-ply,SBD,M
Boys,124.74,11,Dillon Stevens,Greenville,114.76,176.9,108.86,183.7,469.47,Single-ply,SBD,M
Boys,124.74,12,Mitchell Wheat,Greenville,112.94,181.44,108.86,174.63,464.93,Single-ply,SBD,M
Boys,124.74,13,Tim Rovell,Mount Pleasant,117.03,181.44,83.91,165.56,430.91,Single-ply,SBD,M
Boys,124.74,14,Garrett McCleskey,Paris Chisum,116.12,124.74,68.04,156.49,349.27,Single-ply,SBD,M
Boys,124.74+,1,Johnathan Hunt,Texarkana Texas,132.9,249.48,154.22,276.69,680.39,Single-ply,SBD,M
Boys,124.74+,2,Mike Reed,Texarkana Texas,134.72,244.94,127.01,224.53,596.47,Single-ply,SBD,M
Boys,124.74+,3,Chase Cadena,Sulphur Springs,136.08,210.92,140.61,226.8,578.33,Single-ply,SBD,M
Boys,124.74+,4,Adam Waw,Sherman,136.08,224.53,136.08,201.85,562.45,Single-ply,SBD,M
Boys,124.74+,5,Rod Jackson,Commerce,133.36,213.19,140.61,204.12,557.92,Single-ply,SBD,M
Boys,124.74+,6,Jess Jenkins,Sulphur Springs,125.65,176.9,124.74,190.51,492.15,Single-ply,SBD,M
Boys,124.74+,7,Jackie Berry,Paris North Lamar,133.36,185.97,83.91,213.19,483.08,Single-ply,SBD,M
Boys,124.74+,8,Francisco Morales,Mount Pleasant,127.46,188.24,92.99,174.63,455.86,Single-ply,SBD,M
