Name,Division,BodyweightKg,WeightClassKg,AgeRange,Squat1Kg,Squat2Kg,Squat3Kg,Best3SquatKg,Bench1Kg,Bench2Kg,Bench3Kg,Best3BenchKg,Deadlift1Kg,Deadlift2Kg,Deadlift3Kg,Best3DeadliftKg,TotalKg,Place,Sex,Event,Equipment,BirthDate,State
Lenka Pilnikova,F-C-Open,46.7,47,23.5-38.5,75,80,85,85,62.5,-65,65,65,115,120,-126,120,270,1,F,SBD,Raw,,NW
Adele Tickle,F-C-Open,50.6,52,23.5-38.5,105,110,-112.5,110,57.5,60,-62.5,60,125,135,142.5,142.5,312.5,1,F,SBD,Raw,,NW
Danielle Firth,F-C-Open,51.1,52,23.5-38.5,105,112.5,-117.5,112.5,50,52.5,-55,52.5,120,125,130,130,295,2,F,SBD,Raw,,NW
Natalie Banks,F-C-Open,51.2,52,23.5-38.5,85,87.5,-90,87.5,57.5,-60.5,-61,57.5,120,125,132.5,132.5,277.5,3,F,SBD,Raw,,NW
Vicky Mirceta,F-C-Open,50.9,52,23.5-38.5,90,95,-100,95,57.5,60.5,-61,60.5,-115,115,120,120,275.5,4,F,SBD,Raw,,NW
Megan Cotcher,F-C-Open,52.1,57,18.5-22.5,95,105,107.5,107.5,57.5,-60,60,60,120,-132.5,-132.5,120,287.5,1,F,SBD,Raw,,NW
Catherine Sweetman,F-C-Open,62.5,63,18.5-22.5,85,-90,90,90,60,62.5,-65,62.5,115,120,125,125,277.5,1,F,SBD,Raw,,NW
Genevieve Collins,F-C-Open,68,72,23.5-38.5,137.5,140,142.5,142.5,82.5,-85,-85,82.5,147.5,152.5,-155,152.5,377.5,1,F,SBD,Raw,,NW
Laura Battersby,F-C-Open,68.6,72,23.5-38.5,95,97.5,-100,97.5,60,-62.5,-62.5,60,-140,145,-147.5,145,302.5,2,F,SBD,Raw,,NW
Amy Pitman,F-C-Open,69.2,72,18.5-22.5,90,97.5,-102.5,97.5,45,50,-52.5,50,110,120,125,125,272.5,3,F,SBD,Raw,,NW
Pamela Fellows,F-C-Open,78.8,84,23.5-38.5,130,137.5,142.5,142.5,-70,70,-77.5,70,157.5,165,-170,165,377.5,1,F,SBD,Raw,,NW
Katie Yates,F-C-Open,83.4,84,18.5-22.5,125,132.5,-140,132.5,62.5,-67.5,-67.5,62.5,150,155,-160,155,350,2,F,SBD,Raw,,NW
Kelly Kay,F-C-Open,81.7,84,23.5-38.5,125,130,-135,130,-60,60,-65,60,135,142.5,145,145,335,3,F,SBD,Raw,,NW
Sarah Shaw,F-C-Open,82.9,84,39.5-48.5,90,100,105,105,70,75,80,80,130,140,145,145,330,4,F,SBD,Raw,,NW
Adele Fothersgill,F-C-Open,83.3,84,39.5-48.5,110,117.5,-122.5,117.5,-70,70,73,73,120,-125,-125,120,310.5,5,F,SBD,Raw,,NW
Nichola McCloud,F-C-Open,75.6,84,23.5-38.5,100,110,-115,110,50,57.5,-60,57.5,125,135,140,140,307.5,6,F,SBD,Raw,,NW
Lucy Jackson,F-C-Open,101.4,84+,18.5-22.5,-190,190,-192.5,190,90,97.5,102.5,102.5,190,-195,-195,190,482.5,1,F,SBD,Raw,,NW
Alex Foden,F-C-Open,109.6,84+,23.5-38.5,165,-175,-175,165,85,87.5,90,90,150,160,170,170,425,2,F,SBD,Raw,,NW
Lisa Pilkington,F-C-Open,110.3,84+,39.5-48.5,105,-115,-120,105,80,90,-92.5,90,125,135,145,145,340,3,F,SBD,Raw,,NW
Jo Copeland,F-C-Open,111.4,84+,23.5-38.5,95,-105,105,105,-60,60,65,65,130,140,150,150,320,4,F,SBD,Raw,,NW
Vicky Byrne,F-C-Open,90.4,84+,23.5-38.5,-150,-150,-150,,60,-65,-65,60,170,175,-180,175,,DQ,F,SBD,Raw,,NW
Jonathan Zatman,M-C-Open,65.9,66,18.5-22.5,167.5,185,-200,185,95,-102.5,-102.5,95,160,175,-185,175,455,1,M,SBD,Raw,,NW
Adam Mack #1,M-C-Open,72.5,74,23.5-38.5,165,175,-182.5,175,112.5,-117.5,-117.5,112.5,210,222.5,230,230,517.5,1,M,SBD,Raw,,NW
Chris Eaton,M-C-Open,71,74,23.5-38.5,120,130,137.5,137.5,105,112.5,117.5,117.5,175,185,195,195,450,2,M,SBD,Raw,,NW
Chris Neely,M-C-Open,71.3,74,23.5-38.5,135,150,155,155,95,-105,-105,95,165,185,192.5,192.5,442.5,3,M,SBD,Raw,,NW
Joe Gould,M-C-Open,71.1,74,14-17.5,137.5,145,152.5,152.5,80,87.5,,87.5,160,172.5,177.5,177.5,417.5,4,M,SBD,Raw,,NW
Michael Giles,M-C-Open,82,83,23.5-38.5,210,220,-225,220,145,-150,150,150,245,255,265,265,635,1,M,SBD,Raw,,NW
Raymond Thompson,M-C-Open,81.6,83,23.5-38.5,215,222.5,-230,222.5,132.5,140,-145,140,252.5,260,-265,260,622.5,2,M,SBD,Raw,,NW
Ian Shaw,M-C-Open,82.3,83,39.5-48.5,205,-220,-220,205,117.5,-122.5,-122.5,117.5,250.5,275,280.5,280.5,603,3,M,SBD,Raw,,NW
Michael Wynn,M-C-Open,82.9,83,18.5-22.5,195,207.5,212.5,212.5,117.5,130,-135,130,220,235,242.5,242.5,585,4,M,SBD,Raw,,NW
James Chapman #1,M-C-Open,81.8,83,23.5-38.5,180,-190,190,190,117.5,122.5,-125,122.5,220,-230,-230,220,532.5,5,M,SBD,Raw,,NW
Michael Roskell,M-C-Open,80.3,83,23.5-38.5,167.5,177.5,187.5,187.5,102.5,107.5,112.5,112.5,190,207.5,220,220,520,6,M,SBD,Raw,,NW
Nathan Hill,M-C-Open,76.9,83,18.5-22.5,-150,155,-165,155,-120,125,-130,125,205,215,-225,215,495,7,M,SBD,Raw,,NW
Max Williams,M-C-Open,82.1,83,14-17.5,140,150,-157.5,150,85,92.5,-100,92.5,170,190,200,200,442.5,8,M,SBD,Raw,,NW
Mathew Thomas,M-C-Open,80.2,83,18.5-22.5,115,122.5,130,130,72.5,77.5,-85,77.5,160,170,175,175,382.5,9,M,SBD,Raw,,NW
Aidan Sharp,M-C-Open,87.4,93,18.5-22.5,200,210,217.5,217.5,130,-142.5,142.5,142.5,250,-270,-270,250,610,1,M,SBD,Raw,,NW
Andy Evans,M-C-Open,86.8,93,23.5-38.5,170,180,195,195,115,125,130,130,220,235,250,250,575,2,M,SBD,Raw,,NW
David Clifford,M-C-Open,86.8,93,49.5-58.5,190,200,210,210,122.5,128,132.5,132.5,230,-243,-243,230,572.5,3,M,SBD,Raw,1965-06-08,NW
Joe Byrne,M-C-Open,90.6,93,23.5-38.5,207.5,215,,215,135,-140,,135,222.5,-227.5,,222.5,572.5,4,M,SBD,Raw,,NW
Johnny Knight,M-C-Open,93,93,23.5-38.5,170,180,190,190,120,125,130,130,200,215,222.5,222.5,542.5,5,M,SBD,Raw,,NW
Matthew Dorset,M-C-Open,71.8,74,18.5-22.5,145,-155,155,155,-90,-95,-95,,167.5,172.5,182.5,182.5,,DQ,M,SBD,Raw,,NW
Theo Watton,M-C-Open,87.8,93,14-18.5,-180,180,195,195,-110,-120,-120,,200,215,220,220,,DQ,M,SBD,Raw,,NW
Colin Luby,M-C-G,95.8,105,23.5-38.5,-110,-112.5,-115,,-90,-90,-90,,-150,150,155,155,,DQ,M,SBD,Raw,,NW
David Penney,M-C-Open,85.2,93,49.5-58.5,,,,,105,110,115,115,,,,,115,1,M,B,Raw,1968-03-29,NW
Marvin Turner,M-C-Open,104.1,105,23.5-38.5,235,250,-260,250,172.5,182.5,-190,182.5,282.5,300,-310,300,732.5,1,M,SBD,Raw,,NW
Chris Jones #3,M-C-Open,104.3,105,23.5-38.5,200,210,215,215,140,145,150,150,220,-230,-230,220,585,2,M,SBD,Raw,,NW
Dom Myers,M-C-Open,99.8,105,23.5-38.5,160,172.5,185,185,125,135,-145,135,165,175,185,185,505,3,M,SBD,Raw,,NW
James Allen,M-C-Open,103.7,105,18.5-22.5,180,-187.5,-187.5,180,125,-130,-130,125,170,-172.5,-175,170,475,4,M,SBD,Raw,,NW
Tom Griffths,M-C-Open,114.6,120,23.5-38.5,227.5,240,250,250,147.5,157.5,162.5,162.5,257.5,275,-287.5,275,687.5,1,M,SBD,Raw,,NW
Tamás Kurcz,M-C-Open,116.6,120,23.5-38.5,215,230,-240,230,165,170,-175,170,270,285,-300,285,685,2,M,SBD,Raw,,NW
James Hannon,M-C-Open,111.8,120,23.5-38.5,225,235,-242.5,235,145,155,-162.5,155,245,255,-265,255,645,3,M,SBD,Raw,,NW
Wayne Phillips,M-C-Open,112.2,120,49.5-58.5,200,205,215,215,155,160,165,165,245,255,-260,255,635,4,M,SBD,Raw,,NW
Scott Hedges,M-C-Open,117.5,120,23.5-38.5,192.5,207.5,-220,207.5,90,97.5,102.5,102.5,210,225,232.5,232.5,542.5,5,M,SBD,Raw,,NW
Stephen Irving,M-C-Open,119.2,120,39.5-48.5,175,177.5,-180,177.5,105,107.5,-112.5,107.5,220,-222.5,-222.5,220,505,6,M,SBD,Raw,,NW
Tom Render,M-C-Open,105.1,120,18.5-22.5,155,167.5,175,175,102.5,110,115,115,200,212.5,-220,212.5,502.5,7,M,SBD,Raw,,NW
Trevor John Walker,M-C-Open,117.1,120,,-130,130,135,135,85,90,95,95,185,190,196,196,426,8,M,SBD,Raw,1946-10-15,NW
Andy Foster,M-C-Open,143.1,120+,23.5-38.5,280,290,-297.5,290,185,192.5,197.5,197.5,290,-300,-300,290,777.5,1,M,SBD,Raw,,NW
Ross Shahin-Ajerlo,M-C-Open,122.6,120+,23.5-38.5,235,250,260,260,180,190,200,200,280,300,310,310,770,2,M,SBD,Raw,,NW
Frazer Pennington,M-C-Open,130.3,120+,18.5-22.5,300,-315,,300,175,185,-195,185,270,-282.5,-282.5,270,755,3,M,SBD,Raw,,NW
Mark Edwards,M-C-Open,125.1,120+,39.5-48.5,200,210,240.5,240.5,140,148,155,155,220,258,265,265,660.5,4,M,SBD,Raw,,NW
Duncan Sharp,M-E-G,118.8,120,23.5-38.5,,,,,290,310,-320,310,,,,,310,G,M,B,Single-ply,,YNE
