Division,WeightClassKg,Place,Name,Team,BodyweightKg,Best3SquatKg,Best3BenchKg,Best3DeadliftKg,TotalKg,Equipment,Event,Sex,BirthDate
Boys,51.71,1,Imanol Mendez,Louise,49.9,136.08,68.04,147.42,351.53,Single-ply,SBD,M,
Boys,51.71,2,Kolbe Murray,Bay City,49.71,102.06,54.43,111.13,267.62,Single-ply,SBD,M,
Boys,51.71,3,Canaan Allen,Bay City,51.53,86.18,54.43,106.59,247.21,Single-ply,SBD,M,
Boys,51.71,4,Curtis Ledwig,Ganado,51.07,95.25,47.63,102.06,244.94,Single-ply,SBD,M,
Boys,51.71,5,Kaleb Murray,Bay City,46.99,74.84,43.09,90.72,208.65,Single-ply,SBD,M,
Boys,55.79,1,Bryan Maldonado,Wallis Brazos,55.52,145.15,79.38,138.35,362.87,Single-ply,SBD,M,
Boys,55.79,2,James Arrington,Boling,53.71,113.4,61.23,129.27,303.91,Single-ply,SBD,M,
Boys,55.79,3,Trevor Lutringer,Louise,53.8,65.77,49.9,117.93,233.6,Single-ply,SBD,M,
Boys,55.79,DQ,Dustin Devor,Palacios,55.43,113.4,,,,Single-ply,SBD,M,
Boys,55.79,DQ,Drayton Mazac,Sealy,55.79,,,,,Single-ply,SBD,M,
Boys,59.87,1,Jordan Garcia,El Maton Tidehaven,56.15,142.88,74.84,158.76,376.48,Single-ply,SBD,M,
Boys,59.87,2,Sergio Martinez,Wallis Brazos,56.15,108.86,68.04,138.35,315.25,Single-ply,SBD,M,
Boys,59.87,3,Max Wickens,Sealy,57.33,120.2,70.31,115.67,306.17,Single-ply,SBD,M,
Boys,59.87,4,Ivan Butler,Coldspring-Oakhurst,56.43,92.99,74.84,102.06,269.89,Single-ply,SBD,M,
Boys,59.87,5,Ronnie Kimball,Bay City,59.78,95.25,56.7,106.59,258.55,Single-ply,SBD,M,
Boys,59.87,DQ,Adam Rabalias,Victoria St. Joseph,59.87,,,,,Single-ply,SBD,M,
Boys,67.13,1,Manny Calderon,Ganado,63.5,158.76,102.06,158.76,419.57,Single-ply,SBD,M,
Boys,67.13,2,Bradley Garbs,Sealy,65.32,151.95,92.99,165.56,410.5,Single-ply,SBD,M,
Boys,67.13,3,Alerique Medrano,Boling,63.5,145.15,92.99,170.1,408.23,Single-ply,SBD,M,
Boys,67.13,4,Blayke Yeager,Louise,64.14,147.42,77.11,174.63,399.16,Single-ply,SBD,M,
Boys,67.13,5,Roberto Casas,Sealy,66.77,142.88,102.06,147.42,392.36,Single-ply,SBD,M,
Boys,67.13,6,Jonathan Lopez,Palacios,65.77,131.54,83.91,158.76,374.21,Single-ply,SBD,M,
Boys,67.13,7,Ethan Richter,Sealy,64.14,131.54,90.72,145.15,367.41,Single-ply,SBD,M,
Boys,67.13,8,Cain Hayden,Ganado,66.59,145.15,77.11,136.08,358.34,Single-ply,SBD,M,
Boys,67.13,9,Andrew Bell,Louise,65.95,120.2,79.38,145.15,344.73,Single-ply,SBD,M,
Boys,67.13,10,Anthony Nguyen,Palacios,62.32,102.06,74.84,158.76,335.66,Single-ply,SBD,M,
Boys,67.13,11,Dawson Keen,Coldspring-Oakhurst,64.77,117.93,79.38,136.08,333.39,Single-ply,SBD,M,
Boys,67.13,12,Gavin DeLaGarza,Victoria St. Joseph,66.13,113.4,61.23,113.4,288.03,Single-ply,SBD,M,
Boys,67.13,13,Brayden Hanzelka,Wallis Brazos,61.23,90.72,61.23,120.2,272.16,Single-ply,SBD,M,
Boys,67.13,14,Adrian Sanchez,Wharton,65.86,77.11,56.7,83.91,217.72,Single-ply,SBD,M,
Boys,67.13,DQ,Joshua Martinez,Wallis Brazos,67.13,,,,,Single-ply,SBD,M,
Boys,67.13,DQ,Juan Perez,Sealy,60.33,145.15,83.91,,,Single-ply,SBD,M,
Boys,67.13,DQ,Luke Bures,Ganado,63.96,124.74,74.84,,,Single-ply,SBD,M,
Boys,74.84,1,Joseph Townsend,Wallis Brazos,71.58,226.8,122.47,226.8,576.06,Single-ply,SBD,M,
Boys,74.84,2,Antonio Cano,Boling,74.3,190.51,117.93,185.97,494.42,Single-ply,SBD,M,
Boys,74.84,3,Alexis Martinez #14,Ganado,73.48,183.7,108.86,174.63,467.2,Single-ply,SBD,M,
Boys,74.84,4,Logan Stratiou,Boling,72.57,174.63,106.59,147.42,428.64,Single-ply,SBD,M,
Boys,74.84,5,Jason Duran,Victoria St. Joseph,67.77,131.54,102.06,185.97,419.57,Single-ply,SBD,M,
Boys,74.84,6,Ezequiel Medina,Louise,71.67,147.42,83.91,172.37,403.7,Single-ply,SBD,M,
Boys,74.84,7,Gauge McCain,Wallis Brazos,74.03,142.88,77.11,154.22,374.21,Single-ply,SBD,M,
Boys,74.84,8,Josh Henry,Victoria St. Joseph,71.58,115.67,99.79,138.35,353.8,Single-ply,SBD,M,
Boys,74.84,9,Luke Montague,El Maton Tidehaven,74.3,136.08,92.99,122.47,351.53,Single-ply,SBD,M,
Boys,74.84,10,Gavin Duke,Palacios,69.94,117.93,68.04,163.29,349.27,Single-ply,SBD,M,
Boys,74.84,11,Jesús Flores,Louise,69.94,122.47,68.04,142.88,333.39,Single-ply,SBD,M,
Boys,74.84,12,Matthew Lester,Coldspring-Oakhurst,67.86,113.4,88.45,124.74,326.59,Single-ply,SBD,M,
Boys,74.84,13,Alex Garcia #24,Palacios,67.95,113.4,70.31,129.27,312.98,Single-ply,SBD,M,
Boys,74.84,14,Curtis Sanders,Sealy,67.31,83.91,61.23,113.4,258.55,Single-ply,SBD,M,
Boys,74.84,DQ,Jermey Griggs,Wharton,68.95,,,,,Single-ply,SBD,M,
Boys,74.84,DQ,Tate Stamper,Coldspring-Oakhurst,67.59,,,,,Single-ply,SBD,M,
Boys,74.84,DQ,Colton Bailey,Coldspring-Oakhurst,71.4,133.81,,,,Single-ply,SBD,M,
Boys,74.84,DQ,Timothy Sexton,El Maton Tidehaven,74.84,,,,,Single-ply,SBD,M,
Boys,74.84,DQ,Brandon Almeda,Ganado,74.84,,,,,Single-ply,SBD,M,
Boys,82.1,1,Joseph Tate,El Maton Tidehaven,81.28,183.7,127.01,174.63,485.34,Single-ply,SBD,M,
Boys,82.1,2,Gabe Weaver,Victoria St. Joseph,78.02,142.88,95.25,163.29,401.43,Single-ply,SBD,M,
Boys,82.1,3,Thomas Copeland,Victoria St. Joseph,78.56,138.35,86.18,151.95,376.48,Single-ply,SBD,M,
Boys,82.1,4,Juan Andrade,Bay City,80.47,138.35,81.65,147.42,367.41,Single-ply,SBD,M,
Boys,82.1,5,Carter Kovar,Ganado,80.38,145.15,70.31,138.35,353.8,Single-ply,SBD,M,
Boys,82.1,6,Fisher Kessler,El Maton Tidehaven,79.29,113.4,74.84,142.88,331.12,Single-ply,SBD,M,
Boys,82.1,7,Brandon Garcia,Bay City,79.47,106.59,61.23,147.42,315.25,Single-ply,SBD,M,
Boys,82.1,8,Samuel Mieth,Wallis Brazos,78.38,92.99,77.11,129.27,299.37,Single-ply,SBD,M,
Boys,82.1,9,Joseph Suggs,Louise,81.83,102.06,68.04,127.01,297.1,Single-ply,SBD,M,
Boys,82.1,DQ,Scott Lane,Coldspring-Oakhurst,79.92,,,,,Single-ply,SBD,M,
Boys,89.81,1,Jesse Arrington,Boling,87.27,226.8,113.4,215.46,555.65,Single-ply,SBD,M,
Boys,89.81,2,Preston Lee,Boling,87.82,167.83,117.93,208.65,494.42,Single-ply,SBD,M,
Boys,89.81,3,Easton Dean,Coldspring-Oakhurst,85.55,167.83,115.67,176.9,460.4,Single-ply,SBD,M,
Boys,89.81,4,Thomas Lopez,Victoria St. Joseph,89.72,183.7,92.99,174.63,451.32,Single-ply,SBD,M,
Boys,89.81,5,Hersamo Guerrero,Palacios,87.63,158.76,115.67,165.56,439.98,Single-ply,SBD,M,
Boys,89.81,6,Glenn Ihde,Bay City,89.45,161.03,102.06,170.1,433.18,Single-ply,SBD,M,
Boys,89.81,7,Roy Arrambide,Louise,87.72,147.42,92.99,158.76,399.16,Single-ply,SBD,M,
Boys,89.81,8,David Almeda,Ganado,85.64,129.27,77.11,115.67,322.05,Single-ply,SBD,M,
Boys,89.81,DQ,Dayton Prado,Wallis Brazos,83.55,,,,,Single-ply,SBD,M,
Boys,89.81,DQ,Jericho Cardenas,Wharton,89.81,,,,,Single-ply,SBD,M,
Boys,99.79,1,Daniel Gaona III,Louise,94.62,249.48,142.88,233.6,625.96,Single-ply,SBD,M,
Boys,99.79,2,Kasey Zientek,Wallis Brazos,97.79,260.82,129.27,215.46,605.55,Single-ply,SBD,M,
Boys,99.79,3,Ethan Hart,Sealy,93.44,188.24,138.35,197.31,523.9,Single-ply,SBD,M,
Boys,99.79,4,Joseph Brown,Coldspring-Oakhurst,95.25,192.78,108.86,163.29,464.93,Single-ply,SBD,M,
Boys,99.79,5,Seth Wherry,Wallis Brazos,97.16,174.63,104.33,170.1,449.06,Single-ply,SBD,M,
Boys,99.79,6,Hayden Minds,Wallis Brazos,91.81,154.22,95.25,176.9,426.38,Single-ply,SBD,M,
Boys,99.79,7,Jose Arriaga,Sealy,97.16,167.83,99.79,154.22,421.84,Single-ply,SBD,M,
Boys,99.79,8,Damian Gundelach,Louise,95.71,142.88,92.99,161.03,396.89,Single-ply,SBD,M,
Boys,99.79,9,Dominic Williams,Wharton,97.34,142.88,99.79,147.42,390.09,Single-ply,SBD,M,
Boys,99.79,10,Ricardo Garcia,Bay City,91.44,106.59,79.38,154.22,340.19,Single-ply,SBD,M,
Boys,99.79,11,Oscar Parga,Palacios,95.07,102.06,58.97,136.08,297.1,Single-ply,SBD,M,
Boys,99.79,12,Jensen McKinney,Palacios,90.63,104.33,79.38,108.86,292.57,Single-ply,SBD,M,
Boys,99.79,DQ,Sean Sneath,El Maton Tidehaven,93.08,,,,,Single-ply,SBD,M,
Boys,109.77,1,Yahir Alvarez,Sealy,105.32,204.12,140.61,219.99,564.72,Single-ply,SBD,M,
Boys,109.77,2,Wyatt Lee,El Maton Tidehaven,108.5,188.24,149.69,192.78,530.7,Single-ply,SBD,M,
Boys,109.77,3,Jakob Pesina,Bay City,108.77,165.56,92.99,167.83,426.38,Single-ply,SBD,M,
Boys,109.77,4,Martin Arriaga,Boling,102.51,165.56,106.59,142.88,415.04,Single-ply,SBD,M,
Boys,109.77,5,Sean Cotton,El Maton Tidehaven,101.51,149.69,86.18,176.9,412.77,Single-ply,SBD,M,
Boys,109.77,6,Alex Burciaga,Bay City,102.87,138.35,81.65,142.88,362.87,Single-ply,SBD,M,
Boys,109.77,7,Connor Cornish,Victoria St. Joseph,102.06,113.4,83.91,142.88,340.19,Single-ply,SBD,M,
Boys,109.77,8,David Wingo,Wharton,101.6,111.13,92.99,111.13,315.25,Single-ply,SBD,M,
Boys,109.77,9,Chaze McRae,Palacios,100.61,102.06,72.57,102.06,276.69,Single-ply,SBD,M,
Boys,109.77,DQ,Damian Garcia,Coldspring-Oakhurst,108.32,,,,,Single-ply,SBD,M,
Boys,109.77,DQ,Kyle Willingham,Sealy,109.77,,,,,Single-ply,SBD,M,
Boys,124.74,1,Jerry Johnson,El Maton Tidehaven,119.75,294.84,183.7,251.74,730.28,Single-ply,SBD,M,
Boys,124.74,2,Christopher Vasquez,Louise,123.74,260.82,124.74,226.8,612.35,Single-ply,SBD,M,
Boys,124.74,3,Andrew Galvan,El Maton Tidehaven,121.2,188.24,131.54,172.37,492.15,Single-ply,SBD,M,
Boys,124.74,4,Augustine Muniz,Wharton,112.67,163.29,111.13,163.29,437.72,Single-ply,SBD,M,
Boys,124.74,5,Leland Aguilar,Bay City,118.66,136.08,77.11,142.88,356.07,Single-ply,SBD,M,
Boys,124.74,6,Noah Serrano,Victoria St. Joseph,121.2,122.47,79.38,151.95,353.8,Single-ply,SBD,M,
Boys,124.74,7,Cedric McGowen,Coldspring-Oakhurst,110.13,113.4,92.99,142.88,349.27,Single-ply,SBD,M,
Boys,124.74,8,Cody Garnett,Coldspring-Oakhurst,118.66,102.06,79.38,124.74,306.17,Single-ply,SBD,M,
Boys,124.74,DQ,Vincent Barajas,Ganado,124.74,,,,,Single-ply,SBD,M,
Boys,124.74,DQ,Connor Campbell,Victoria St. Joseph,124.74,,,,,Single-ply,SBD,M,
Boys,139.71,1,Raybert Williamson,Boling,130.18,240.4,131.54,170.1,542.04,Single-ply,SBD,M,
Boys,139.71,2,Dailynn Hernandez,Bay City,128.82,231.33,120.2,170.1,521.63,Single-ply,SBD,M,
Boys,139.71,3,Isaac Allen,Bay City,128.55,161.03,127.01,142.88,430.91,Single-ply,SBD,M,
Boys,139.71,4,Gabe Medina,Victoria St. Joseph,127.19,149.69,102.06,113.4,365.14,Single-ply,SBD,M,
Boys,139.71,5,Malachi Piles,Coldspring-Oakhurst,138.16,142.88,83.91,136.08,362.87,Single-ply,SBD,M,
Boys,139.71,6,Juan Garcia,Bay City,132.72,124.74,72.57,147.42,344.73,Single-ply,SBD,M,
Boys,139.71,DQ,Daniel Barrera,Sealy,127.1,156.49,106.59,,,Single-ply,SBD,M,
Boys,139.71,DQ,Seth Bear,Boling,139.71,,,,,Single-ply,SBD,M,
