Division,WeightClassKg,Place,Name,Team,BodyweightKg,Best3SquatKg,Best3BenchKg,Best3DeadliftKg,TotalKg,Equipment,Event,Sex,BirthDate
Boys,51.71,1,Cason Wilbanks,Decatur,45.72,115.67,54.43,113.4,283.5,Single-ply,SBD,M,
Boys,51.71,2,Frank Pastusek,Castleberry,49.71,77.11,63.5,104.33,244.94,Single-ply,SBD,M,
Boys,55.79,1,Valentino Huerta,Castleberry,53.89,115.67,70.31,131.54,317.51,Single-ply,SBD,M,
Boys,55.79,2,Mark Teigan,Lake Worth,52.62,99.79,61.23,111.13,272.16,Single-ply,SBD,M,
Boys,59.87,1,Evan Guzman,Mineral Wells,59.15,156.49,104.33,104.33,365.14,Single-ply,SBD,M,
Boys,67.13,1,Erick Macias,Bridgeport,66.68,201.85,111.13,181.44,494.42,Single-ply,SBD,M,
Boys,67.13,2,Yahir Hernandez,Graham,64.41,192.78,106.59,188.24,487.61,Single-ply,SBD,M,
Boys,67.13,3,Zane White,Bridgeport,66.95,199.58,83.91,181.44,464.93,Single-ply,SBD,M,
Boys,67.13,4,Colton Rudder,Bridgeport,66.59,156.49,102.06,190.51,449.06,Single-ply,SBD,M,
Boys,67.13,5,Kevin Ramirez,Weatherford,63.96,163.29,120.2,147.42,430.91,Single-ply,SBD,M,
Boys,67.13,6,Jake Dunn,Decatur,64.41,161.03,83.91,174.63,419.57,Single-ply,SBD,M,
Boys,67.13,7,Zandon White,Bridgeport,65.32,167.83,92.99,142.88,403.7,Single-ply,SBD,M,
Boys,67.13,8,Evan Kun,Mineral Wells,63.32,147.42,90.72,158.76,396.89,Single-ply,SBD,M,
Boys,67.13,9,Junior Ramirez,Castleberry,64.95,147.42,99.79,142.88,390.09,Single-ply,SBD,M,
Boys,67.13,10,Dominic Garcia,Castleberry,62.23,145.15,97.52,138.35,381.02,Single-ply,SBD,M,
Boys,74.84,1,Heith Lewis,Peaster,72.57,188.24,102.06,181.44,471.74,Single-ply,SBD,M,
Boys,74.84,2,Giovanni Torres,Decatur,74.66,179.17,92.99,185.97,458.13,Single-ply,SBD,M,
Boys,74.84,3,Jesus Maya,Weatherford,74.84,195.04,92.99,165.56,453.59,Single-ply,SBD,M,
Boys,74.84,4,Jose Coronado,Castleberry,70.49,149.69,113.4,165.56,428.64,Single-ply,SBD,M,
Boys,74.84,5,John Windham,Castleberry,68.49,120.2,90.72,133.81,344.73,Single-ply,SBD,M,
Boys,82.1,1,Colton Ligon,Graham,82.1,231.33,142.88,217.72,591.94,Single-ply,SBD,M,
Boys,82.1,2,Wyatt Lacy,Peaster,78.02,240.4,113.4,222.26,576.06,Single-ply,SBD,M,
Boys,82.1,3,Barrett Smith,Weatherford,79.83,204.12,145.15,206.38,555.65,Single-ply,SBD,M,
Boys,82.1,4,Alonso Abreu,Castleberry,80.74,197.31,122.47,213.19,532.97,Single-ply,SBD,M,
Boys,82.1,5,Kevin Salas,Decatur,82.01,199.58,136.08,195.04,530.7,Single-ply,SBD,M,
Boys,82.1,6,Abel Aldape,Decatur,81.92,208.65,131.54,183.7,523.9,Single-ply,SBD,M,
Boys,82.1,7,Daniel Jasso,Castleberry,79.74,192.78,131.54,188.24,512.56,Single-ply,SBD,M,
Boys,82.1,8,Marvin Terry,Castleberry,79.83,129.27,111.13,158.76,399.16,Single-ply,SBD,M,
Boys,89.81,1,Cole Faires,Peaster,88.9,226.8,124.74,233.6,585.13,Single-ply,SBD,M,
Boys,89.81,2,Aden Hinshaw,Decatur,83.82,208.65,127.01,190.51,526.17,Single-ply,SBD,M,
Boys,89.81,3,Jorge Padron,Decatur,88.18,204.12,120.2,192.78,517.1,Single-ply,SBD,M,
Boys,89.81,4,Everett Young,Weatherford,86.18,185.97,142.88,181.44,510.29,Single-ply,SBD,M,
Boys,89.81,5,Chris Santamaria,Castleberry,83.01,172.37,95.25,158.76,426.38,Single-ply,SBD,M,
Boys,99.79,1,Jimmy Gamino,Decatur,95.8,258.55,149.69,260.82,669.05,Single-ply,SBD,M,
Boys,99.79,2,Daniel Seals,Weatherford,89.99,244.94,183.7,238.14,666.78,Single-ply,SBD,M,
Boys,99.79,3,Gustavo Isaac,Decatur,94.35,208.65,127.01,208.65,544.31,Single-ply,SBD,M,
Boys,99.79,4,Korbin Owens,Decatur,94.89,192.78,113.4,206.38,512.56,Single-ply,SBD,M,
Boys,99.79,5,Bradyn Gachuzo,Peaster,92.08,185.97,124.74,183.7,494.42,Single-ply,SBD,M,
Boys,99.79,6,Kaedan Newsom,Mineral Wells,91.9,183.7,104.33,190.51,478.54,Single-ply,SBD,M,
Boys,99.79,7,Brandon Gray,Mineral Wells,99.34,190.51,90.72,190.51,471.74,Single-ply,SBD,M,
Boys,109.77,1,Wyatt Vinzant,Decatur,100.97,242.67,136.08,229.06,607.81,Single-ply,SBD,M,
Boys,109.77,2,Toben Petree,Decatur,106.68,233.6,136.08,192.78,562.45,Single-ply,SBD,M,
Boys,109.77,3,Omar Chehade,Weatherford,108.41,219.99,138.35,195.04,553.38,Single-ply,SBD,M,
Boys,109.77,4,Eagan Dennett,Weatherford,102.06,183.7,163.29,199.58,546.58,Single-ply,SBD,M,
Boys,109.77,5,Talan Yowell,Graham,109.77,190.51,124.74,174.63,489.88,Single-ply,SBD,M,
Boys,109.77,6,Ethan Vargas,Castleberry,108.32,158.76,120.2,183.7,462.66,Single-ply,SBD,M,
Boys,109.77,DQ,Ryan Clark,Weatherford,109.77,,,,,Single-ply,SBD,M,
Boys,109.77,DQ,Bryson Ross,Weatherford,108.41,,,,,Single-ply,SBD,M,
Boys,124.74,1,Karson Daniel,Weatherford,115.21,260.82,188.24,231.33,680.39,Single-ply,SBD,M,
Boys,124.74,2,Cooper Sharp,Peaster,114.76,251.74,129.27,235.87,616.89,Single-ply,SBD,M,
Boys,124.74,3,Justin Frazier,Graham,117.48,226.8,138.35,183.7,548.85,Single-ply,SBD,M,
Boys,124.74,4,Joshua Epsinosa,Lake Worth,114.76,226.8,131.54,181.44,539.77,Single-ply,SBD,M,
Boys,124.74,5,Riley Bostick,Weatherford,119.29,204.12,147.42,188.24,539.77,Single-ply,SBD,M,
Boys,124.74,6,Hunter Menchaca,Mineral Wells,112.49,219.99,108.86,201.85,530.7,Single-ply,SBD,M,
Boys,124.74,7,Fernando Rodriguez,Castleberry,120.2,183.7,120.2,206.38,510.29,Single-ply,SBD,M,
Boys,139.71,1,Hayden Philpot,Decatur,133.27,299.37,206.38,254.01,759.77,Single-ply,SBD,M,
Boys,139.71,2,Chason McCue,Weatherford,129.27,231.33,165.56,195.04,591.94,Single-ply,SBD,M,
Boys,139.71,3,James Bess,Lake Worth,136.08,233.6,142.88,204.12,580.6,Single-ply,SBD,M,
Boys,139.71,4,Carson Cortez,Bridgeport,129.27,204.12,124.74,192.78,521.63,Single-ply,SBD,M,
Boys,139.71+,1,Hector Garcia,Lake Worth,158.3,238.14,136.08,222.26,596.47,Single-ply,SBD,M,
Boys,139.71+,2,Xavier King,Weatherford,145.15,247.21,127.01,210.92,585.13,Single-ply,SBD,M,
Boys,139.71+,3,Rohan Collins,Decatur,153.04,210.92,129.27,213.19,553.38,Single-ply,SBD,M,
Boys,139.71+,4,Spencer Johnson,Peaster,140.16,201.85,127.01,167.83,496.68,Single-ply,SBD,M,
