Division,WeightClassKg,Place,Name,Team,BodyweightKg,Best3SquatKg,Best3BenchKg,Best3DeadliftKg,TotalKg,Equipment,Event,Sex,BirthDate
Boys,51.71,1,Fabian Garcia,Edinburg Idea College Prep,51.62,165.56,113.4,174.63,453.59,Single-ply,SBD,M,
Boys,51.71,2,Tomas Elizondo,San Diego,51.53,165.56,92.99,183.7,442.25,Single-ply,SBD,M,
Boys,51.71,3,Hisaac Guerrero,Rio Hondo,49.8,149.69,115.67,163.29,428.64,Single-ply,SBD,M,
Boys,51.71,4,Javier Aleman,Karnes City,51.07,151.95,83.91,156.49,392.36,Single-ply,SBD,M,
Boys,51.71,5,Josiah Maldonado,Robstown,50.89,147.42,74.84,142.88,365.14,Single-ply,SBD,M,
Boys,51.71,6,Gustavo Guerrero,Port Isabel,49.44,131.54,70.31,124.74,326.59,Single-ply,SBD,M,
Boys,51.71,7,Ivan Gonzales,Mathis,50.89,104.33,72.57,142.88,319.78,Single-ply,SBD,M,
Boys,51.71,8,Romulo Torres,San Diego,50.89,124.74,70.31,124.74,319.78,Single-ply,SBD,M,
Boys,51.71,9,Christopher Cancino,San Antonio Cole,50.89,115.67,79.38,122.47,317.51,Single-ply,SBD,M,
Boys,51.71,10,Michael Contreras,Alice,50.35,106.59,70.31,136.08,312.98,Single-ply,SBD,M,
Boys,51.71,11,Christian Galvan,Rio Hondo,51.44,115.67,68.04,120.2,303.91,Single-ply,SBD,M,
Boys,55.79,1,Jaden Lopez,Port Isabel,55.52,206.38,92.99,197.31,496.68,Single-ply,SBD,M,
Boys,55.79,2,Donavon Longoria,Mathis,54.88,163.29,95.25,176.9,435.45,Single-ply,SBD,M,
Boys,55.79,3,Rj Fernandez,San Antonio Holy Cross,55.16,161.03,102.06,161.03,424.11,Single-ply,SBD,M,
Boys,55.79,4,Gabriel Chavez,Lyford,55.34,170.1,81.65,172.37,424.11,Single-ply,SBD,M,
Boys,55.79,5,David Chittarath,Rockport-Fulton,54.79,161.03,83.91,174.63,419.57,Single-ply,SBD,M,
Boys,55.79,6,Raul Muzquiz,Crystal City,54.98,149.69,83.91,165.56,399.16,Single-ply,SBD,M,
Boys,55.79,7,Isaak Prieto,Lyford,53.71,154.22,88.45,151.95,394.63,Single-ply,SBD,M,
Boys,55.79,8,Michael Longoria #1,San Diego,54.16,154.22,95.25,142.88,392.36,Single-ply,SBD,M,
Boys,55.79,9,Alex Garcia #2,Cotulla,53.71,154.22,90.72,145.15,390.09,Single-ply,SBD,M,
Boys,55.79,10,Ryan Jimenez,Crystal City,54.79,145.15,79.38,161.03,385.55,Single-ply,SBD,M,
Boys,55.79,DQ,Ethan Brown,Bandera,55.25,,,,,Single-ply,SBD,M,
Boys,55.79,DQ,Juan Higgins,Universal City Randolph,55.34,149.69,83.91,,,Single-ply,SBD,M,
Boys,59.87,1,Robert Rios,Mathis,59.51,197.31,133.81,229.06,560.19,Single-ply,SBD,M,
Boys,59.87,2,David Hernandez,Port Isabel,59.33,204.12,108.86,210.92,523.9,Single-ply,SBD,M,
Boys,59.87,3,Bryan Gutierrez,Bishop,59.78,199.58,129.27,183.7,512.56,Single-ply,SBD,M,
Boys,59.87,4,Joseph Espinoza,Taft,59.87,192.78,113.4,199.58,505.76,Single-ply,SBD,M,
Boys,59.87,5,Julian Cadena,Corpus Christi Calallen,58.42,163.29,140.61,163.29,467.2,Single-ply,SBD,M,
Boys,59.87,6,John Contreras,Beeville Jones,58.69,170.1,79.38,197.31,446.79,Single-ply,SBD,M,
Boys,59.87,7,James Adams,Odem,58.42,167.83,92.99,176.9,437.72,Single-ply,SBD,M,
Boys,59.87,8,Damian Rodriguez,Dilley,59.42,154.22,90.72,190.51,435.45,Single-ply,SBD,M,
Boys,59.87,9,Ezra Salazar,Corpus Christi Tuloso-Midway,58.79,161.03,92.99,174.63,428.64,Single-ply,SBD,M,
Boys,59.87,10,Austin Lopez,Robstown,58.97,158.76,92.99,174.63,426.38,Single-ply,SBD,M,
Boys,59.87,11,Sebastian Perez,Crystal City,59.06,138.35,106.59,158.76,403.7,Single-ply,SBD,M,
Boys,59.87,DQ,Christian Martinez,Hondo,56.97,,,,,Single-ply,SBD,M,
Boys,67.13,1,Jerek Sanchez,Taft,64.59,222.26,161.03,235.87,619.15,Single-ply,SBD,M,
Boys,67.13,2,Chase Hafer,San Antonio Cole,66.5,215.46,124.74,274.42,614.62,Single-ply,SBD,M,
Boys,67.13,3,Elijah Ybarra,Mathis,66.86,247.21,149.69,215.46,612.35,Single-ply,SBD,M,
Boys,67.13,4,Eric Hernandez,Devine,66.04,215.46,115.67,229.06,560.19,Single-ply,SBD,M,
Boys,67.13,5,Austin Mendez,San Diego,66.5,199.58,122.47,231.33,553.38,Single-ply,SBD,M,
Boys,67.13,6,Josh Trevino,Corpus Christi West Oso,64.68,192.78,136.08,199.58,528.44,Single-ply,SBD,M,
Boys,67.13,7,Tyler McClaugherty,Lyford,66.22,219.99,108.86,192.78,521.63,Single-ply,SBD,M,
Boys,67.13,8,Elyon Ybarra,Mathis,65.59,192.78,136.08,190.51,519.36,Single-ply,SBD,M,
Boys,67.13,9,Zach Smith #10,Orange Grove,65.95,210.92,97.52,190.51,498.95,Single-ply,SBD,M,
Boys,67.13,DQ,Luke Davis,Sinton,65.59,201.85,,,,Single-ply,SBD,M,
Boys,67.13,DQ,Quen Syma,Lytle,65.5,,,,,Single-ply,SBD,M,
Boys,74.84,1,Lukas Salaiz,San Diego,73.75,244.94,156.49,247.21,648.64,Single-ply,SBD,M,
Boys,74.84,2,Anthony Garcia,Mathis,74.66,244.94,161.03,235.87,641.83,Single-ply,SBD,M,
Boys,74.84,3,Adrian Vasquez,Natalia,72.94,247.21,140.61,233.6,621.42,Single-ply,SBD,M,
Boys,74.84,4,Daniel Almeida,Uvalde,73.48,210.92,120.2,258.55,589.67,Single-ply,SBD,M,
Boys,74.84,5,Adrian Bueno-Villa,Corpus Christi Calallen,74.66,204.12,131.54,235.87,571.53,Single-ply,SBD,M,
Boys,74.84,6,Joey Trujillo,Carrizo Springs,72.39,199.58,115.67,235.87,551.11,Single-ply,SBD,M,
Boys,74.84,7,Miguel Martinez,Port Isabel,73.39,210.92,113.4,219.99,544.31,Single-ply,SBD,M,
Boys,74.84,8,Luke Fanno,Jourdanton,73.12,201.85,102.06,201.85,505.76,Single-ply,SBD,M,
Boys,74.84,DQ,Jacob Martinez,Hidalgo Early College,74.66,,,,,Single-ply,SBD,M,
Boys,74.84,DQ,Miguel Guerrero,Hidalgo Early College,74.48,,,,,Single-ply,SBD,M,
Boys,74.84,DQ,Adrian Hernandez #5,Pearsall,74.12,208.65,136.08,,,Single-ply,SBD,M,
Boys,74.84,DQ,Zach Lambert,Uvalde,73.75,,,,,Single-ply,SBD,M,
Boys,82.1,1,Jaxon Mabile,Ingleside,78.56,272.16,161.03,249.48,682.66,Single-ply,SBD,M,
Boys,82.1,2,Chris Verdin,Jourdanton,80.47,244.94,136.08,235.87,616.89,Single-ply,SBD,M,
Boys,82.1,3,Seth Morgan,Ingleside,81.47,219.99,151.95,242.67,614.62,Single-ply,SBD,M,
Boys,82.1,4,Rylan Wagner,Lytle,80.92,215.46,158.76,238.14,612.35,Single-ply,SBD,M,
Boys,82.1,5,Robert Torres #3,Sinton,82.1,249.48,136.08,226.8,612.35,Single-ply,SBD,M,
Boys,82.1,6,Eden Fuentes,Pearsall,80.2,226.8,140.61,235.87,603.28,Single-ply,SBD,M,
Boys,82.1,7,Jaime Salinas,San Diego,78.83,256.28,142.88,183.7,582.87,Single-ply,SBD,M,
Boys,82.1,8,Jacob Charles,Corpus Christi London,81.28,215.46,136.08,215.46,566.99,Single-ply,SBD,M,
Boys,82.1,9,Jose Vasquez,Corpus Christi Calallen,79.11,201.85,140.61,210.92,553.38,Single-ply,SBD,M,
Boys,82.1,10,Travis Menchaca,La Feria,77.56,183.7,111.13,226.8,521.63,Single-ply,SBD,M,
Boys,82.1,DQ,Hernandez Ariel,Pearsall,80.92,210.92,124.74,,,Single-ply,SBD,M,
Boys,82.1,DQ,Jason Rodriguez,San Diego,79.92,,,,,Single-ply,SBD,M,
Boys,82.1,DQ,Chiso Nwampka,Corpus Christi Tuloso-Midway,78.11,,,,,Single-ply,SBD,M,
Boys,89.81,1,Derik DeLeon,Mathis,88,292.57,204.12,278.96,775.64,Single-ply,SBD,M,
Boys,89.81,2,Jose Torres,San Diego,88.18,240.4,154.22,254.01,648.64,Single-ply,SBD,M,
Boys,89.81,3,Isaac Garcia,Crystal City,89.54,244.94,140.61,256.28,641.83,Single-ply,SBD,M,
Boys,89.81,4,Epi Hinojosa,Corpus Christi Calallen,88.09,249.48,167.83,213.19,630.49,Single-ply,SBD,M,
Boys,89.81,5,Martelo Villarreal,Beeville Jones,88.27,238.14,165.56,217.72,621.42,Single-ply,SBD,M,
Boys,89.81,6,Logan Dewald,Sinton,89.72,231.33,129.27,247.21,607.81,Single-ply,SBD,M,
Boys,89.81,7,Joey Cantu,Rockport-Fulton,84.73,238.14,136.08,226.8,601.01,Single-ply,SBD,M,
Boys,89.81,8,Sain Norales,Somerset,86.73,219.99,145.15,229.06,594.21,Single-ply,SBD,M,
Boys,89.81,9,Ambrose Patton,Beeville Jones,88.72,238.14,124.74,213.19,576.06,Single-ply,SBD,M,
Boys,89.81,DQ,Mike Flores,Cotulla,87.72,,,,,Single-ply,SBD,M,
Boys,89.81,DQ,Adrian Cantu,Raymondville,87,,,,,Single-ply,SBD,M,
Boys,99.79,1,Isaiah Valdez,Somerset,98.07,308.44,226.8,235.87,771.11,Single-ply,SBD,M,
Boys,99.79,2,Issac Paredes,Jourdanton,97.79,265.35,183.7,254.01,703.07,Single-ply,SBD,M,
Boys,99.79,3,Orlando Morales,La Feria,96.43,272.16,149.69,244.94,666.78,Single-ply,SBD,M,
Boys,99.79,4,Jonah Hernandez,Port Isabel,97.07,272.16,145.15,226.8,644.1,Single-ply,SBD,M,
Boys,99.79,5,Martin Rios,Crystal City,98.88,265.35,149.69,229.06,644.1,Single-ply,SBD,M,
Boys,99.79,6,Ray Leal,Pearsall,96.89,249.48,142.88,226.8,619.15,Single-ply,SBD,M,
Boys,99.79,7,Juan Lerma,Jourdanton,98.7,213.19,183.7,206.38,603.28,Single-ply,SBD,M,
Boys,99.79,8,Eli Gonzales,Cotulla,98.52,247.21,172.37,181.44,601.01,Single-ply,SBD,M,
Boys,99.79,DQ,Joseph Fillmore,Corpus Christi John Paul II High School,97.98,256.28,142.88,,,Single-ply,SBD,M,
Boys,99.79,DQ,Dylan Lagenschulte,Corpus Christi Calallen,97.16,213.19,145.15,,,Single-ply,SBD,M,
Boys,99.79,DQ,Martin Lopez,Crystal City,97.34,,,,,Single-ply,SBD,M,
Boys,99.79,DQ,Alejandro Gómez,Hebbronville,98.16,,,,,Single-ply,SBD,M,
Boys,99.79,DQ,Alomar Ybarra,Somerset,96.89,,,,,Single-ply,SBD,M,
Boys,109.77,1,Seth Ruff,Ingleside,106.32,362.87,190.51,310.71,864.09,Single-ply,SBD,M,
Boys,109.77,2,Dante DeLeon,Mathis,108.14,308.44,215.46,247.21,771.11,Single-ply,SBD,M,
Boys,109.77,3,Logan Baker #2,Stockdale,105.87,285.76,156.49,254.01,696.26,Single-ply,SBD,M,
Boys,109.77,4,Lance Lopez,Orange Grove,108.95,281.23,183.7,215.46,680.39,Single-ply,SBD,M,
Boys,109.77,5,Steven Terrazas,Somerset,103.69,244.94,188.24,233.6,666.78,Single-ply,SBD,M,
Boys,109.77,6,Jake Arroyos,Beeville Jones,104.69,260.82,158.76,242.67,662.24,Single-ply,SBD,M,
Boys,109.77,7,Ricardo Carrion,Corpus Christi Calallen,102.06,244.94,158.76,235.87,639.57,Single-ply,SBD,M,
Boys,109.77,8,Mark Alvico,Poth,106.87,281.23,142.88,208.65,632.76,Single-ply,SBD,M,
Boys,109.77,9,John Cuevas #2,Skidmore-Tynan,109.77,244.94,154.22,215.46,614.62,Single-ply,SBD,M,
Boys,109.77,10,Phillip Valles,Carrizo Springs,108.05,240.4,131.54,229.06,601.01,Single-ply,SBD,M,
Boys,109.77,DQ,Robert Sanchez #5,Cotulla,105.69,,,,,Single-ply,SBD,M,
Boys,124.74,1,Alfredo Segura,Carrizo Springs,110.4,297.1,174.63,276.69,748.43,Single-ply,SBD,M,
Boys,124.74,2,Jacob Castellanos,Corpus Christi Calallen,110.77,285.76,190.51,265.35,741.62,Single-ply,SBD,M,
Boys,124.74,3,Matthew Lopez #1,Rio Hondo,123.65,294.84,188.24,249.48,732.55,Single-ply,SBD,M,
Boys,124.74,4,Michael Garza #6,Rio Hondo,121.65,290.3,179.17,217.72,687.19,Single-ply,SBD,M,
Boys,124.74,5,Saul Hernandez,Hidalgo Early College,120.29,272.16,183.7,226.8,682.66,Single-ply,SBD,M,
Boys,124.74,6,Isaac Longoria,Hidalgo Early College,117.93,256.28,170.1,235.87,662.24,Single-ply,SBD,M,
Boys,124.74,7,Gabriel Guttierrez,Pearsall,116.48,263.08,140.61,251.74,655.44,Single-ply,SBD,M,
Boys,124.74,8,Ruben Guerra,Hidalgo Early College,119.75,285.76,145.15,210.92,641.83,Single-ply,SBD,M,
Boys,124.74,9,Kollin Meeks,Pearsall,119.11,267.62,165.56,204.12,637.3,Single-ply,SBD,M,
Boys,124.74,10,Adrian Gonzalez,Rio Hondo,119.84,249.48,170.1,199.58,619.15,Single-ply,SBD,M,
Boys,124.74,DQ,LeVerius Gage,Goliad,124.56,,,,,Single-ply,SBD,M,
Boys,124.74,DQ,Antonio Marroquin,La Feria,110.22,,,,,Single-ply,SBD,M,
Boys,139.71,1,Nate Martinez #4,Sinton,125.01,265.35,183.7,238.14,687.19,Single-ply,SBD,M,
Boys,139.71,2,Dustin Soto,Natalia,125.19,272.16,165.56,247.21,684.92,Single-ply,SBD,M,
Boys,139.71,3,John Rodriguez,Skidmore-Tynan,125.1,258.55,183.7,229.06,671.32,Single-ply,SBD,M,
Boys,139.71,4,Elijah Brown,Sinton,131.54,278.96,161.03,229.06,669.05,Single-ply,SBD,M,
Boys,139.71,5,Mark Flores,Somerset,134.72,283.5,192.78,188.24,664.51,Single-ply,SBD,M,
Boys,139.71,6,Kaleb Linares,Cotulla,125.01,272.16,172.37,217.72,662.24,Single-ply,SBD,M,
Boys,139.71,7,David Garza,Hidalgo Early College,132.45,265.35,181.44,210.92,657.71,Single-ply,SBD,M,
Boys,139.71,8,Walker Wimberly,Goliad,135.26,238.14,136.08,224.53,598.74,Single-ply,SBD,M,
Boys,139.71,9,Diego Anguiano,Pleasanton,133.81,254.01,142.88,195.04,591.94,Single-ply,SBD,M,
Boys,139.71,10,David Gomez,Rio Hondo,128.64,217.72,170.1,199.58,587.4,Single-ply,SBD,M,
Boys,139.71,DQ,Jayden Miller #2,Poteet,128.73,,,,,Single-ply,SBD,M,
Boys,139.71,DQ,Dalton Perry,Poth,138.53,,,,,Single-ply,SBD,M,
Boys,139.71+,1,Daniel Garza,Carrizo Springs,145.33,315.25,190.51,254.01,759.77,Single-ply,SBD,M,
Boys,139.71+,2,Ruben Leal,Aransas Pass,158.49,283.5,206.38,206.38,696.26,Single-ply,SBD,M,
Boys,139.71+,3,Triston Garza,La Feria,151.5,308.44,167.83,204.12,680.39,Single-ply,SBD,M,
Boys,139.71+,4,Kirk Revis,San Antonio Holy Cross,141.16,251.74,174.63,217.72,644.1,Single-ply,SBD,M,
Boys,139.71+,5,Tony Chavez,Taft,176.54,231.33,106.59,204.12,542.04,Single-ply,SBD,M,
Boys,139.71+,6,Eduardo Rosales,La Feria,149.32,197.31,142.88,199.58,539.77,Single-ply,SBD,M,
Boys,139.71+,7,Dylon Sequera,Corpus Christi West Oso,150.23,190.51,136.08,183.7,510.29,Single-ply,SBD,M,
Boys,139.71+,8,Tomas Amaya,Kingsville King,198.22,127.01,92.99,124.74,344.73,Single-ply,SBD,M,
Boys,139.71+,DQ,Lando Cantu,Raymondville,140.61,206.38,120.2,,,Single-ply,SBD,M,
Boys,139.71+,DQ,Jaden Brooks,Raymondville,183.8,,,,,Single-ply,SBD,M,
Boys,139.71+,DQ,Miguel Chavarria,Rio Hondo,143.52,213.19,,,,Single-ply,SBD,M,
Boys,139.71+,DQ,Ethan Lopez,Karnes City,168.65,229.06,,,,Single-ply,SBD,M,
Boys,,NS,Nate Tagle,Corpus Christi Calallen,,,,,,Single-ply,SBD,M,
Boys,,NS,Justin Cantu,Corpus Christi Calallen,,,,,,Single-ply,SBD,M,
Boys,,NS,Marcus Cerda,Taft,,,,,,Single-ply,SBD,M,
Boys,,NS,Andres Garza,San Diego,,,,,,Single-ply,SBD,M,
Boys,,NS,Tristan Trevino,Poth,,,,,,Single-ply,SBD,M,
Boys,,NS,Juan Torres #2,Raymondville,,,,,,Single-ply,SBD,M,
