Division,WeightClassKg,Place,Name,Team,BodyweightKg,Best3SquatKg,Best3BenchKg,Best3DeadliftKg,TotalKg,Equipment,Event,Sex,BirthDate
Boys,51.71,1,Dilin Exum,Detroit,51.71,142.88,,122.47,265.35,Single-ply,SD,M,
Boys,51.71,2,Keyshawn McDade,New Boston,48.08,92.99,52.16,92.99,238.14,Single-ply,SBD,M,
Boys,51.71,3,Jd Allen,New Boston,49.9,81.65,40.82,92.99,215.46,Single-ply,SBD,M,
Boys,55.79,1,Jose Martinez,Commerce,54.43,120.2,68.04,147.42,335.66,Single-ply,SBD,M,
Boys,55.79,2,Devin Walker,New Boston,53.07,95.25,54.43,106.59,256.28,Single-ply,SBD,M,
Boys,59.87,1,Luke Elrod,Paris North Lamar,58.51,161.03,97.52,190.51,449.06,Single-ply,SBD,M,
Boys,59.87,2,Payton Cole,Bells,59.87,176.9,102.06,170.1,449.06,Single-ply,SBD,M,
Boys,59.87,3,Michael Lane,Linden-Kildare,58.97,167.83,81.65,161.03,410.5,Single-ply,SBD,M,
Boys,59.87,4,Dreightan Patt,Honey Grove,57.61,142.88,56.7,136.08,335.66,Single-ply,SBD,M,
Boys,59.87,5,Amaryon Jones,New Boston,57.15,113.4,65.77,127.01,306.17,Single-ply,SBD,M,
Boys,59.87,6,Grahm Knight,Commerce,57.15,79.38,47.63,113.4,240.4,Single-ply,SBD,M,
Boys,67.13,1,Jeffrey Boyd,Bells,66.68,204.12,117.93,201.85,523.9,Single-ply,SBD,M,
Boys,67.13,2,Cloedus Scales,Detroit,66.68,183.7,108.86,149.69,442.25,Single-ply,SBD,M,
Boys,67.13,3,Austin Walker,New Boston,61.69,149.69,79.38,156.49,385.55,Single-ply,SBD,M,
Boys,67.13,4,Lance Miller,Clarksville,66.22,113.4,68.04,172.37,353.8,Single-ply,SBD,M,
Boys,67.13,5,Jack Weger,Honey Grove,66.22,124.74,65.77,115.67,306.17,Single-ply,SBD,M,
Boys,67.13,6,Jackson Pedigo,Bells,65.32,83.91,38.56,83.91,206.38,Single-ply,SBD,M,
Boys,74.84,1,Lane Kendrick,Bells,74.48,208.65,129.27,219.99,557.92,Single-ply,SBD,M,
Boys,74.84,2,Claude Scales,Detroit,73.84,206.38,106.59,195.04,508.02,Single-ply,SBD,M,
Boys,74.84,3,Gage Bradley,Caddo Mills,73.94,185.97,95.25,165.56,446.79,Single-ply,SBD,M,
Boys,74.84,4,Trey Poindfexter,Quinlan Boles,74.3,151.95,77.11,147.42,376.48,Single-ply,SBD,M,
Boys,74.84,5,Ozzy Granado,Quinlan Boles,72.76,145.15,74.84,151.95,371.95,Single-ply,SBD,M,
Boys,74.84,6,Tiwa Sirtairat,Bells,72.03,138.35,77.11,151.95,367.41,Single-ply,SBD,M,
Boys,74.84,7,Blaine Farmer,Detroit,71.21,163.29,,192.78,356.07,Single-ply,SD,M,
Boys,74.84,8,Deon Morris,Honey Grove,73.94,136.08,68.04,140.61,344.73,Single-ply,SBD,M,
Boys,74.84,9,Kyle Foster,Commerce,68.86,113.4,79.38,136.08,328.85,Single-ply,SBD,M,
Boys,74.84,10,Kendal Wolfe,Honey Grove,72.12,113.4,63.5,136.08,312.98,Single-ply,SBD,M,
Boys,74.84,DQ,Brandon Mccormack,Paris North Lamar,70.31,172.37,,,,Single-ply,SBD,M,
Boys,74.84,DQ,Malaki Tillery,Paris North Lamar,72.76,174.63,,,,Single-ply,SBD,M,
Boys,82.1,1,Raymond Malphurs,Quinlan Boles,77.93,181.44,92.99,201.85,476.27,Single-ply,SBD,M,
Boys,82.1,2,Shawn Veal,New Boston,80.29,158.76,83.91,172.37,415.04,Single-ply,SBD,M,
Boys,82.1,3,Bradley Branch,Bells,78.56,151.95,79.38,170.1,401.43,Single-ply,SBD,M,
Boys,82.1,4,Jesse Troy,Paris North Lamar,80.65,136.08,92.99,167.83,396.89,Single-ply,SBD,M,
Boys,82.1,5,Jamar Smith,New Boston,79.38,147.42,97.52,142.88,387.82,Single-ply,SBD,M,
Boys,82.1,6,Tucker Crutchfield,Detroit,78.83,129.27,92.99,149.69,371.95,Single-ply,SBD,M,
Boys,82.1,7,Parker Wilcox,Commerce,77.66,133.81,72.57,156.49,362.87,Single-ply,SBD,M,
Boys,82.1,8,Jordan McMurray,Commerce,77.47,142.88,74.84,142.88,360.61,Single-ply,SBD,M,
Boys,82.1,9,Avery Rodruigues,Commerce,81.47,131.54,83.91,142.88,358.34,Single-ply,SBD,M,
Boys,82.1,10,Jamie Froese,Paris Chisum,80.92,113.4,83.91,147.42,344.73,Single-ply,SBD,M,
Boys,82.1,11,Dakota Dillard,Quinlan Boles,79.65,102.06,74.84,136.08,312.98,Single-ply,SBD,M,
Boys,82.1,12,Angel Berumen,Quinlan Boles,81.1,156.49,,151.95,308.44,Single-ply,SD,M,
Boys,82.1,13,Brady Banker,Honey Grove,75.3,133.81,56.7,113.4,303.91,Single-ply,SBD,M,
Boys,82.1,14,Antonio Torres,Honey Grove,75.21,90.72,63.5,129.27,283.5,Single-ply,SBD,M,
Boys,82.1,15,Kaeson Watts,New Boston,77.56,,99.79,156.49,256.28,Single-ply,BD,M,
Boys,82.1,16,Cody Stevens,Paris North Lamar,75.75,142.88,,,142.88,Single-ply,S,M,
Boys,82.1,DQ,Caleb Miller,Quinlan Boles,81.65,,83.91,181.44,,Single-ply,SBD,M,
Boys,89.81,1,Bradley Parsons,Detroit,87.18,240.4,149.69,219.99,610.08,Single-ply,SBD,M,
Boys,89.81,2,Dalton Daniel,New Boston,83.46,244.94,117.93,229.06,591.94,Single-ply,SBD,M,
Boys,89.81,3,Christian Mena,Bells,88.9,226.8,142.88,213.19,582.87,Single-ply,SBD,M,
Boys,89.81,4,Jayden Shelby,Detroit,86.18,170.1,92.99,176.9,439.98,Single-ply,SBD,M,
Boys,89.81,5,Remington Brown,Paris North Lamar,87.54,161.03,92.99,170.1,424.11,Single-ply,SBD,M,
Boys,89.81,6,Grant Rainey,Pottsboro,88.45,149.69,92.99,154.22,396.89,Single-ply,SBD,M,
Boys,89.81,7,Garrett Young Frey,Quinlan Boles,87.09,136.08,92.99,129.27,358.34,Single-ply,SBD,M,
Boys,99.79,1,Henry Serrano,Commerce,94.08,215.46,131.54,206.38,553.38,Single-ply,SBD,M,
Boys,99.79,2,Johnathan Olguin,Clarksville,93.44,181.44,106.59,192.78,480.81,Single-ply,SBD,M,
Boys,99.79,3,Maverick Brown,Paris North Lamar,94.35,176.9,104.33,172.37,453.59,Single-ply,SBD,M,
Boys,99.79,4,Jason Boyd,Bells,98.88,176.9,92.99,174.63,444.52,Single-ply,SBD,M,
Boys,99.79,5,Hutson Maddox,Paris Chisum,99.34,115.67,97.52,129.27,342.46,Single-ply,SBD,M,
Boys,109.77,1,Atticus Finley,Paris North Lamar,107.5,215.46,115.67,204.12,535.24,Single-ply,SBD,M,
Boys,109.77,2,Bennett Hale,Caddo Mills,104.33,167.83,124.74,174.63,467.2,Single-ply,SBD,M,
Boys,109.77,3,Octavio Resendiz,Clarksville,101.15,181.44,102.06,158.76,442.25,Single-ply,SBD,M,
Boys,109.77,4,Cody Kirk,Pottsboro,100.24,163.29,106.59,165.56,435.45,Single-ply,SBD,M,
Boys,109.77,5,Landon Alexander,Caddo Mills,101.6,149.69,79.38,145.15,374.21,Single-ply,SBD,M,
Boys,109.77,6,Josh Riddle,Commerce,100.24,136.08,70.31,136.08,342.46,Single-ply,SBD,M,
Boys,109.77,7,Travis Skipworth,Bells,109.32,74.84,83.91,111.13,269.89,Single-ply,SBD,M,
Boys,109.77,8,Tate Banker,Honey Grove,109.32,136.08,83.91,,219.99,Single-ply,SB,M,
Boys,124.74,1,Seth Riddle,Commerce,112.94,185.97,102.06,195.04,483.08,Single-ply,SBD,M,
Boys,124.74,2,Billy Stewart,Clarksville,111.58,147.42,,170.1,317.51,Single-ply,SD,M,
Boys,124.74,3,KeAaron Jackson,Detroit,119.29,,108.86,192.78,301.64,Single-ply,BD,M,
Boys,139.71,DQ,Joshua Hewn,Quinlan Boles,136.98,,120.2,181.44,,Single-ply,SBD,M,
Boys,139.71+,1,Noah Howell,Commerce,150.14,256.28,165.56,272.16,694,Single-ply,SBD,M,
Boys,139.71+,2,Joseph Monroe,Bells,174.63,213.19,113.4,161.03,487.61,Single-ply,SBD,M,
Boys,139.71+,3,Johnathan Scott,New Boston,159.66,183.7,113.4,183.7,480.81,Single-ply,SBD,M,
Boys,139.71+,4,Carson Culp,Pottsboro,148.78,170.1,102.06,151.95,424.11,Single-ply,SBD,M,
