Division,WeightClassKg,Place,Name,Team,BodyweightKg,Best3SquatKg,Best3BenchKg,Best3DeadliftKg,TotalKg,Equipment,Event,Sex,BirthDate
Boys,59.87,1,Kayden Duhon,Lake Worth,58.97,90.72,52.16,117.93,260.82,Single-ply,SBD,M,
Boys,67.13,1,Daiton Kreipe,Weatherford,66.68,136.08,102.06,142.88,381.02,Single-ply,SBD,M,
Boys,67.13,2,Yaniel DeJesus,Lake Worth,65.32,133.81,90.72,136.08,360.61,Single-ply,SBD,M,
Boys,67.13,3,Chris Britton,Weatherford,67.13,127.01,74.84,140.61,342.46,Single-ply,SBD,M,
Boys,67.13,4,Bradley Simmons,Weatherford,64.18,127.01,70.31,113.4,310.71,Single-ply,SBD,M,
Boys,74.84,1,Eathan Teran,Castleberry,70.76,136.08,86.18,131.54,353.8,Single-ply,SBD,M,
Boys,74.84,2,Shane Burnaman,Weatherford,67.59,106.59,65.77,124.74,297.1,Single-ply,SBD,M,
Boys,82.1,1,Jose Meza,Lake Worth,77.11,142.88,83.91,158.76,385.55,Single-ply,SBD,M,
Boys,82.1,2,Colten Jacobs,Weatherford,77.56,136.08,79.38,142.88,358.34,Single-ply,SBD,M,
Boys,82.1,3,Ocatvio Garcia,Lake Worth,78.7,111.13,79.38,136.08,326.59,Single-ply,SBD,M,
Boys,82.1,4,Logan Myetich,Weatherford,81.65,92.99,61.23,122.47,276.69,Single-ply,SBD,M,
Boys,89.81,1,Brandon Hutto,Weatherford,87.09,158.76,106.59,190.51,455.86,Single-ply,SBD,M,
Boys,89.81,2,Jaiden Gallagher,Lake Worth,82.55,163.29,97.52,172.37,433.18,Single-ply,SBD,M,
Boys,89.81,3,Dane Bryan,Weatherford,89.81,122.47,122.47,183.7,428.64,Single-ply,SBD,M,
Boys,89.81,4,Adam Moon,Mineral Wells,89.36,122.47,79.38,124.74,326.59,Single-ply,SBD,M,
Boys,89.81,5,Joshua Starnes,Castleberry,84.37,117.93,68.04,136.08,322.05,Single-ply,SBD,M,
Boys,99.79,1,Jadon Bailey,Weatherford,92.99,181.44,117.93,181.44,480.81,Single-ply,SBD,M,
Boys,99.79,2,Jafet Lopez,Lake Worth,95.25,165.56,113.4,190.51,469.47,Single-ply,SBD,M,
Boys,99.79,3,Gavin Lopez,Weatherford,99.79,174.63,124.74,165.56,464.93,Single-ply,SBD,M,
Boys,99.79,4,Shannon Rogers,Mineral Wells,94.35,156.49,104.33,165.56,426.38,Single-ply,SBD,M,
Boys,99.79,5,Michael Andrade,Lake Worth,90.72,156.49,106.59,154.22,417.3,Single-ply,SBD,M,
Boys,99.79,6,Jacob Butler,Mineral Wells,93.44,151.95,83.91,156.49,392.36,Single-ply,SBD,M,
Boys,99.79,7,Zander Thompson,Weatherford,92.53,138.35,104.33,145.15,387.82,Single-ply,SBD,M,
Boys,99.79,8,Issac Reyes,Castleberry,96.62,138.35,83.91,113.4,335.66,Single-ply,SBD,M,
Boys,109.77,1,Saul Becerra,Castleberry,108.86,188.24,106.59,142.88,437.72,Single-ply,SBD,M,
Boys,109.77,2,Mark-Anthony Cordova,Lake Worth,107.05,127.01,70.31,136.08,333.39,Single-ply,SBD,M,
Boys,124.74,1,Riley Bostick,Weatherford,118.39,192.78,142.88,183.7,519.36,Single-ply,SBD,M,
Boys,124.74,2,Nathan Armendarais,Lake Worth,110.68,111.13,70.31,120.2,301.64,Single-ply,SBD,M,
Boys,139.71,1,James Bess,Lake Worth,136.08,215.46,138.35,188.24,542.04,Single-ply,SBD,M,
