Place,Name,Sex,Equipment,Division,BodyweightKg,WeightClassKg,Squat1Kg,Squat2Kg,Squat3Kg,Best3SquatKg,Bench1Kg,Bench2Kg,Bench3Kg,Best3BenchKg,Deadlift1Kg,Deadlift2Kg,Deadlift3Kg,Best3DeadliftKg,TotalKg,Event,BirthDate,BirthYear,Age,Team,State,Country
1,Imaan Rasul-Healer,F,Raw,FR-O,56.8,57,95,100,-102.5,100,55,-60,-60,55,85,97.5,105,105,260,SBD,,,,NTU,NM,England
2,Rosie Hopkins,F,Raw,FR-O,55.1,57,70,75,80,80,37.5,40,-42.5,40,95,102.5,110,110,230,SBD,,,,UON,NM,England
1,Beca Morgan,F,Raw,FR-O,60.6,63,95,-102.5,105,105,52.5,-57.5,-57.5,52.5,135,142.5,-147.5,142.5,300,SBD,,,,,,England
2,Sophie Fowler,F,Raw,FR-O,61.5,63,92.5,100,105,105,45,50,-52.5,50,112.5,120,125,125,280,SBD,,,,LBO,NM,England
3,Amber Butterfield,F,Raw,FR-O,61.4,63,92.5,97.5,102.5,102.5,37.5,40,42.5,42.5,112.5,120,130,130,275,SBD,,,,UON,NM,England
4,Nadia Laffey,F,Raw,FR-O,62.9,63,77.5,85,90,90,52.5,57.5,60,60,110,117.5,122.5,122.5,272.5,SBD,,,,LBO,NM,England
5,Bayan Fadlalla,F,Raw,FR-O,60.4,63,90,95,97.5,97.5,47.5,50,52.5,52.5,112.5,115,117.5,117.5,267.5,SBD,,,,UON,NM,England
6,Sharon Satish,F,Raw,FR-O,59.6,63,77.5,82.5,90,90,55,-60,-60,55,107.5,115,120,120,265,SBD,,,,UON,NM,England
1,Mareva Flandrin,F,Raw,FR-O,66.3,69,115,120,-125,120,65,-70,70,70,115,-120,-120,115,305,SBD,,,,NTU,NM,England
2,Ellie Robins,F,Raw,FR-O,65.3,69,97.5,107.5,115,115,-55,55,60,60,110,120,127.5,127.5,302.5,SBD,,,,LBO,NM,England
3,Niamh Underhill,F,Raw,FR-O,68.3,69,95,100,107.5,107.5,52.5,57.5,-62.5,57.5,110,120,-130,120,285,SBD,,,,DMU,NM,England
4,Georgia Clissold,F,Raw,FR-O,66.5,69,85,92.5,97.5,97.5,45,50,52.5,52.5,110,122.5,130,130,280,SBD,,,,UON,NM,England
1,Chloe-Louise Hoes,F,Raw,FR-O,74.2,76,107.5,115,-122.5,115,55,60,62.5,62.5,130,140,150,150,327.5,SBD,,,,UON,NM,England
2,Tabitha Walton,F,Raw,FR-O,71.6,76,90,97.5,105,105,45,47.5,50,50,120,127.5,132.5,132.5,287.5,SBD,,,,UON,NM,England
1,Milly Stoneley,F,Raw,FR-O,96.1,84+,135,150,160,160,70,77.5,85,85,135,150,-160,150,395,SBD,,,,UON,NM,England
2,Chizaram Egbuziem,F,Raw,FR-O,90.5,84+,115,122.5,127.5,127.5,52.5,57.5,62.5,62.5,140,155,-165,155,345,SBD,,,,LBO,NM,England
3,Diane Romano-Woodward,F,Raw,FR-O,85.1,84+,70,75,80,80,50,55,-60,55,100,107.5,112.5,112.5,247.5,SBD,,,,NTU,NM,England
1,Patrick Obcena,M,Raw,MR-O,64.9,66,157.5,165,170,170,105,112.5,117.5,117.5,195,-205,-207.5,195,482.5,SBD,,,18,LBO,NM,England
2,Aamir Aziz,M,Raw,MR-O,61.8,66,90,100,105,105,65,70,-75,70,140,150,160,160,335,SBD,,,,NTU,NM,England
1,Adam Essex,M,Raw,MR-O,72.9,74,152.5,162.5,170,170,115,122.5,130,130,195,210,217.5,217.5,517.5,SBD,,,,LBO,NM,England
2,Daniel Taylor,M,Raw,MR-O,72.4,74,155,165,175,175,112.5,120,-125,120,195,205,212.5,212.5,507.5,SBD,,,,LBO,NM,England
3,Eric Kimani,M,Raw,MR-O,73.3,74,-180,180,195,195,110,117.5,-125,117.5,-195,195,-215,195,507.5,SBD,,,,NTU,NM,England
4,Evan Daniels,M,Raw,MR-O,73.1,74,150,160,170,170,80,90,-95,90,175,190,200,200,460,SBD,,,,NTU,NM,England
5,Thomas Heron,M,Raw,MR-O,73.5,74,140,147.5,155,155,92.5,97.5,100,100,170,180,190,190,445,SBD,,,,UON,NM,England
6,Ethan Beckford,M,Raw,MR-O,72.2,74,145,-150,150,150,90,95,97.5,97.5,175,187.5,-200,187.5,435,SBD,,,,UON,NM,England
7,Finn Miller,M,Raw,MR-O,67.1,74,60,70,-80,70,-45,50,-60,50,70,77.5,85,85,205,SBD,,,,NTU,NM,England
1,Kian Doyle,M,Raw,MR-O,81.7,83,175,182.5,190,190,135,142.5,145,145,230,240,-250,240,575,SBD,,,,LBO,NM,England
2,Tom Huggins,M,Raw,MR-O,82.7,83,182.5,192.5,197.5,197.5,110,115,117.5,117.5,225,237.5,-247.5,237.5,552.5,SBD,,,,UON,NM,England
3,Sam Taylor #8,M,Raw,MR-O,79.3,83,150,165,172.5,172.5,110,120,-125,120,202.5,217.5,230,230,522.5,SBD,,,,,,England
4,JJ Daley,M,Raw,MR-O,80.4,83,157.5,167.5,177.5,177.5,115,122.5,130,130,195,205,215,215,522.5,SBD,,,,UON,NM,England
5,Henry Cheung,M,Raw,MR-O,81.3,83,155,162.5,-167.5,162.5,120,125,127.5,127.5,205,217.5,227.5,227.5,517.5,SBD,,,,NTU,NM,England
6,Cameron Huke,M,Raw,MR-O,78.7,83,-180,180,192.5,192.5,90,100,105,105,185,197.5,210,210,507.5,SBD,,,,UON,NM,England
7,Benji Gill,M,Raw,MR-O,80,83,167.5,177.5,185,185,107.5,112.5,117.5,117.5,180,192.5,-205,192.5,495,SBD,,,,UON,NM,England
8,Bartosz Miroslaw,M,Raw,MR-O,81.9,83,150,157.5,162.5,162.5,130,137.5,142.5,142.5,170,180,-190,180,485,SBD,,,,DMU,NM,England
9,Elliot Reid,M,Raw,MR-O,81.5,83,135,142.5,-145,142.5,90,95,100,100,160,175,-185,175,417.5,SBD,,,,UON,NM,England
1,Michael Ampofo-Anti,M,Raw,MR-O,89.4,93,210,220,225,225,-160,170,-175,170,260,270,-277.5,270,665,SBD,,,,UOL,NM,England
2,Christopher Fear,M,Raw,MR-O,92,93,210,222.5,232.5,232.5,125,132.5,-135,132.5,230,245,255,255,620,SBD,,,,LBO,NM,England
3,William Lake #1,M,Raw,MR-O,92.2,93,205,215,225,225,137.5,145,-147.5,145,230,242.5,250,250,620,SBD,,,,NTU,NM,England
4,Max Benford,M,Raw,MR-O,91.8,93,205,215,225,225,140,152.5,-162.5,152.5,220,240,-260,240,617.5,SBD,,,,LBO,NM,England
5,Jack Taylor #7,M,Raw,MR-O,91.8,93,175,185,197.5,197.5,190,200,202.5,202.5,180,195,210,210,610,SBD,,,20,LBO,NM,England
6,Dominic J King,M,Raw,MR-O,87.1,93,195,205,212.5,212.5,110,115,117.5,117.5,200,210,220,220,550,SBD,,,,UON,NM,England
7,Conner Scarfe,M,Raw,MR-O,90.3,93,180,195,205,205,105,112.5,120,120,212.5,225,-235,225,550,SBD,,,,LBO,NM,England
8,Ilia Krastev,M,Raw,MR-O,86.4,93,192.5,-202.5,202.5,202.5,112.5,-120,-120,112.5,205,215,225,225,540,SBD,,,,NTU,NM,England
9,Ethan McDerment,M,Raw,MR-O,91.4,93,160,165,-170,165,110,120,-125,120,215,225,232.5,232.5,517.5,SBD,,,,UON,NM,England
10,Elliot Hicks,M,Raw,MR-O,90.6,93,165,175,-180,175,115,120,-125,120,190,200,210,210,505,SBD,,,,UON,NM,England
11,Alexander Holness,M,Raw,MR-O,88.4,93,170,-177.5,177.5,177.5,97.5,105,-110,105,210,-225,-235,210,492.5,SBD,,1999,,NTU,NM,England
12,Thomas Smith,M,Raw,MR-O,88.9,93,155,162.5,170,170,90,97.5,102.5,102.5,185,195,205,205,477.5,SBD,,,,UON,NM,England
13,Raiyan Rashid,M,Raw,MR-O,83.7,93,100,120,125,125,80,85,-90,85,180,192.5,202.5,202.5,412.5,SBD,,,,NTU,NM,England
DQ,Joseph Eaton,M,Raw,MR-O,92,93,230,245,250,250,140,145,-147.5,145,,,,,,SBD,,,,LBO,NM,England
1,Noah Miles,M,Raw,MR-O,96.8,105,215,225,237.5,237.5,132.5,140,145,145,255,265,275,275,657.5,SBD,,,,LBO,NM,England
2,Fin Suttie,M,Raw,MR-O,104.1,105,220,-235,235,235,140,-152.5,152.5,152.5,220,260,-272.5,260,647.5,SBD,,,,NTU,NM,England
3,Dominic Blake,M,Raw,MR-O,100.4,105,192.5,202.5,210,210,137.5,145,150,150,227.5,240,250,250,610,SBD,,,,UON,NM,England
4,Finn Wood,M,Raw,MR-O,102.9,105,205,217.5,230,230,135,142.5,147.5,147.5,200,215,-227.5,215,592.5,SBD,,,,UON,NM,England
5,Cameron Little,M,Raw,MR-O,103.6,105,190,202.5,207.5,207.5,127.5,135,140,140,227.5,240,245,245,592.5,SBD,,,,UON,NM,England
6,Jamie Jonathan Foord,M,Raw,MR-O,93.1,105,195,205,215,215,112.5,117.5,122.5,122.5,222.5,235,242.5,242.5,580,SBD,2002-12-22,,,NTU,NM,England
7,Jake Brinton,M,Raw,MR-O,104.7,105,-190,-190,200,200,125,132.5,135,135,210,225,235,235,570,SBD,,,,NTU,NM,England
8,Thomas Goff,M,Raw,MR-O,94.5,105,140,150,160,160,112.5,117.5,122.5,122.5,160,175,185,185,467.5,SBD,,,,NTU,NM,England
9,Oscar Goodchild,M,Raw,MR-O,96.6,105,-145,145,160,160,97.5,102.5,107.5,107.5,165,180,190,190,457.5,SBD,,,,NTU,NM,England
1,Dominic Schoen,M,Raw,MR-O,118.1,120,230,240,250,250,140,150,155,155,250,-260,260,260,665,SBD,,,,LBO,NM,England
2,James Finn,M,Raw,MR-O,118.4,120,207.5,217.5,222.5,222.5,135,142.5,-150,142.5,255,270,-280,270,635,SBD,,,,LBO,NM,England
