Division,WeightClassKg,Place,Name,Team,BodyweightKg,Best3SquatKg,Best3BenchKg,Best3DeadliftKg,TotalKg,Equipment,Event,Sex,BirthDate
Boys,51.71,DQ,Justin Flores,Edcouch-Elsa,51.71,131.54,,,,Single-ply,SBD,M,
Boys,55.79,1,Tyler Martinez,Edcouch-Elsa,55.79,174.63,99.79,192.78,467.2,Single-ply,SBD,M,
Boys,59.87,1,John Torres,Edcouch-Elsa,59.83,149.69,83.91,142.88,376.48,Single-ply,SBD,M,
Boys,59.87,2,Modesto Reyes,La Villa,59.65,102.06,61.23,111.13,274.42,Single-ply,SBD,M,
Boys,67.13,1,Ever Crispin,Edcouch-Elsa,67.13,249.48,156.49,240.4,646.37,Single-ply,SBD,M,
Boys,67.13,2,Marckopolo Cavazos,Mission Veterans Memorial,66.68,226.8,108.86,233.6,569.26,Single-ply,SBD,M,
Boys,67.13,3,Aj Contreras,La Villa,67.09,174.63,117.93,195.04,487.61,Single-ply,SBD,M,
Boys,67.13,4,Jayden Silguero,La Villa,66.95,179.17,111.13,185.97,476.27,Single-ply,SBD,M,
Boys,67.13,5,Edurado Ordaz,Mission Veterans Memorial,65.86,163.29,106.59,158.76,428.64,Single-ply,SBD,M,
Boys,67.13,6,Jacob Espericueta,La Villa,67.04,149.69,102.06,158.76,410.5,Single-ply,SBD,M,
Boys,67.13,7,Cecilio Pacheco,Edinburg Economedes,66.9,104.33,68.04,145.15,317.51,Single-ply,SBD,M,
Boys,74.84,1,Alonso Bravo,Mission Veterans Memorial,73.3,224.53,154.22,210.92,589.67,Single-ply,SBD,M,
Boys,74.84,2,Enrique Ordaz,Mission Veterans Memorial,72.89,183.7,111.13,163.29,458.13,Single-ply,SBD,M,
Boys,74.84,3,Izaac Estrada,Edcouch-Elsa,74.84,174.63,88.45,188.24,451.32,Single-ply,SBD,M,
Boys,74.84,4,Diego Guevara,Edinburg Economedes,69.35,156.49,92.99,161.03,410.5,Single-ply,SBD,M,
Boys,74.84,5,Cristian Lopez,Edinburg Economedes,72.67,120.2,70.31,136.08,326.59,Single-ply,SBD,M,
Boys,82.1,1,Javier Ornelas,Mission Veterans Memorial,77.07,217.72,138.35,206.38,562.45,Single-ply,SBD,M,
Boys,82.1,2,Marcelo Cantu,Mission Veterans Memorial,80.83,192.78,97.52,206.38,496.68,Single-ply,SBD,M,
Boys,82.1,3,Heston Garza,Edcouch-Elsa,81.42,197.31,97.52,183.7,478.54,Single-ply,SBD,M,
Boys,82.1,4,Miguel Rodriguez,Edinburg Economedes,78.52,181.44,90.72,192.78,464.93,Single-ply,SBD,M,
Boys,82.1,5,Othon Elizondo,Edinburg Economedes,80.78,142.88,108.86,195.04,446.79,Single-ply,SBD,M,
Boys,82.1,6,Paul Villapando,Edcouch-Elsa,81.83,176.9,92.99,140.61,410.5,Single-ply,SBD,M,
Boys,89.81,1,Jerry Reyes,La Villa,89.45,244.94,156.49,183.7,585.13,Single-ply,SBD,M,
Boys,89.81,2,Ever Reyes,La Villa,89.77,222.26,122.47,197.31,542.04,Single-ply,SBD,M,
Boys,89.81,3,Darwinn Rodriguez,Edinburg Economedes,87.95,195.04,133.81,201.85,530.7,Single-ply,SBD,M,
Boys,89.81,4,Cj Vallejo,Edcouch-Elsa,89.81,190.51,111.13,170.1,471.74,Single-ply,SBD,M,
Boys,89.81,5,Jonathan Hernandez,Edinburg Economedes,87,142.88,97.52,165.56,405.97,Single-ply,SBD,M,
Boys,89.81,6,Tim Plata,Edinburg Economedes,87.91,136.08,86.18,170.1,392.36,Single-ply,SBD,M,
Boys,89.81,DQ,Ricky Godinez,Edcouch-Elsa,89.81,181.44,,,,Single-ply,SBD,M,
Boys,99.79,1,Manuel Reyna,Edinburg Economedes,97.79,210.92,111.13,192.78,514.83,Single-ply,SBD,M,
Boys,99.79,2,Diego Salinas,Edinburg Economedes,98.43,145.15,77.11,145.15,367.41,Single-ply,SBD,M,
Boys,99.79,3,Cristofer Ontiveros,Edinburg Economedes,96.52,147.42,81.65,127.01,356.07,Single-ply,SBD,M,
Boys,109.77,1,Justin Esquivel,Edcouch-Elsa,109.77,285.76,181.44,238.14,705.34,Single-ply,SBD,M,
Boys,109.77,2,Alexander Saenz,Edinburg Economedes,108.68,102.06,79.38,113.4,294.84,Single-ply,SBD,M,
Boys,124.74,1,Justin Sandoval,Edcouch-Elsa,124.74,283.5,167.83,233.6,684.92,Single-ply,SBD,M,
Boys,124.74,2,Jaime Elissetche,La Villa,124.56,272.16,154.22,190.51,616.89,Single-ply,SBD,M,
Boys,139.71,1,Jakob de la Rosa,Edinburg Economedes,133.4,136.08,106.59,165.56,408.23,Single-ply,SBD,M,
Boys,139.71+,1,Juan Barrera,Edcouch-Elsa,140.16,263.08,185.97,226.8,675.85,Single-ply,SBD,M,
Boys,139.71+,2,Pedro Martinez,Edinburg Economedes,153.54,238.14,129.27,222.26,589.67,Single-ply,SBD,M,
