Division,WeightClassKg,Place,Name,Team,BodyweightKg,Best3SquatKg,Best3BenchKg,Best3DeadliftKg,TotalKg,Equipment,Event,Sex,BirthDate
Boys,51.71,1,Austin Cuthbertson,Van Alstyne,50.98,199.58,97.52,158.76,455.86,Single-ply,SBD,M,
Boys,51.71,2,Gage Woodring,Millsap,51.35,120.2,74.84,127.01,322.05,Single-ply,SBD,M,
Boys,51.71,3,Junior Rodriguez,Nevada Community,50.98,124.74,72.57,120.2,317.51,Single-ply,SBD,M,
Boys,51.71,4,Raphael Chavez,Gainesville,51.71,115.67,74.84,117.93,308.44,Single-ply,SBD,M,
Boys,51.71,5,Jordan Barlagna,Leonard,49.99,108.86,58.97,111.13,278.96,Single-ply,SBD,M,
Boys,51.71,6,Aiden Guzman,Mineral Wells,51.62,102.06,63.5,113.4,278.96,Single-ply,SBD,M,
Boys,51.71,7,Ethan Lorenz,Decatur,50.8,95.25,63.5,106.59,265.35,Single-ply,SBD,M,
Boys,51.71,8,Chris Diaz,Bangs,50.8,92.99,52.16,111.13,256.28,Single-ply,SBD,M,
Boys,51.71,9,Judson Wells,Stephenville,51.71,88.45,52.16,106.59,247.21,Single-ply,SBD,M,
Boys,51.71,10,Nicky Diaz,Nocona,49.08,88.45,52.16,102.06,242.67,Single-ply,SBD,M,
Boys,51.71,11,Jimmy Evetts,Brownwood,49.26,79.38,56.7,102.06,238.14,Single-ply,SBD,M,
Boys,51.71,DQ,Nathan Stevens,Wichita Falls City View,45.09,,,,,Single-ply,SBD,M,
Boys,55.79,1,Kenaj Washington,Kennedale,55.79,179.17,97.52,170.1,446.79,Single-ply,SBD,M,
Boys,55.79,2,Alex Labrada,Whitesboro,55.7,154.22,97.52,165.56,417.3,Single-ply,SBD,M,
Boys,55.79,3,Alexis Huerta,Gainesville,55.79,154.22,83.91,145.15,383.29,Single-ply,SBD,M,
Boys,55.79,4,Payton Cole,Bells,52.8,145.15,92.99,136.08,374.21,Single-ply,SBD,M,
Boys,55.79,5,Randy Slaughter,Leonard,54.98,140.61,83.91,145.15,369.68,Single-ply,SBD,M,
Boys,55.79,6,Garrett Upshaw,Decatur,55.34,122.47,83.91,151.95,358.34,Single-ply,SBD,M,
Boys,55.79,7,Jose Cuellar,Celina,54.25,113.4,72.57,165.56,351.53,Single-ply,SBD,M,
Boys,55.79,8,Lisandro Ortiz,Dublin,55.61,124.74,79.38,145.15,349.27,Single-ply,SBD,M,
Boys,55.79,9,Kaisei Coppinger,Whitesboro,55.43,127.01,72.57,142.88,342.46,Single-ply,SBD,M,
Boys,55.79,10,Miguel Olivares,Nocona,55.79,122.47,74.84,142.88,340.19,Single-ply,SBD,M,
Boys,55.79,11,Raiden Brezina,Bowie,55.79,131.54,68.04,131.54,331.12,Single-ply,SBD,M,
Boys,55.79,DQ,Renier Reyes,Decatur,54.98,151.95,102.06,,,Single-ply,SBD,M,
Boys,59.87,1,Edwin Rodriguez,Pilot Point,59.87,217.72,97.52,192.78,508.02,Single-ply,SBD,M,
Boys,59.87,2,Asher Contreras,Whitesboro,58.51,181.44,92.99,190.51,464.93,Single-ply,SBD,M,
Boys,59.87,3,Damien Santillianes,Bangs,59.42,174.63,106.59,174.63,455.86,Single-ply,SBD,M,
Boys,59.87,4,Javier Fraire,Gainesville,59.87,158.76,115.67,158.76,433.18,Single-ply,SBD,M,
Boys,59.87,5,Destin Warr,Callisburg,57.33,156.49,99.79,170.1,426.38,Single-ply,SBD,M,
Boys,59.87,6,Manuel Rodriguez #2,Decatur,59.87,158.76,99.79,163.29,421.84,Single-ply,SBD,M,
Boys,59.87,7,Arnoldo Moreno,Dublin,57.06,140.61,88.45,165.56,394.63,Single-ply,SBD,M,
Boys,59.87,8,Cade Dudley,Celina,59.6,136.08,111.13,136.08,383.29,Single-ply,SBD,M,
Boys,59.87,9,Daniel Rodriguez #13,Decatur,59.87,138.35,90.72,151.95,381.02,Single-ply,SBD,M,
Boys,59.87,DQ,Colton Rudder,Bridgeport,58.79,142.88,88.45,,,Single-ply,SBD,M,
Boys,59.87,DQ,Ignacio Salas,Whitesboro,59.33,215.46,,,,Single-ply,SBD,M,
Boys,59.87,DQ,Westin Hill,Sanger,59.15,176.9,,,,Single-ply,SBD,M,
Boys,67.13,1,Peyton Knight,Melissa,65.77,226.8,140.61,210.92,578.33,Single-ply,SBD,M,
Boys,67.13,2,Marlete Joyner,Kennedale,67.04,229.06,120.2,208.65,557.92,Single-ply,SBD,M,
Boys,67.13,3,Creed Carter,Sanger,64.68,229.06,117.93,199.58,546.58,Single-ply,SBD,M,
Boys,67.13,4,Nick Rhinehart,Bonham,66.86,213.19,142.88,188.24,544.31,Single-ply,SBD,M,
Boys,67.13,5,Jeffery Boyd,Bells,66.32,204.12,115.67,181.44,501.22,Single-ply,SBD,M,
Boys,67.13,6,Jerree Mills,Kennedale,67.04,181.44,122.47,185.97,489.88,Single-ply,SBD,M,
Boys,67.13,7,Warren Ruiz-Demaree,Anna,66.22,183.7,111.13,192.78,487.61,Single-ply,SBD,M,
Boys,67.13,8,Ian Cortez,Bangs,66.86,192.78,88.45,204.12,485.34,Single-ply,SBD,M,
Boys,67.13,9,Edson Torres,Celina,67.13,195.04,92.99,179.17,467.2,Single-ply,SBD,M,
Boys,67.13,DQ,Chance Cruz,Argyle,67.04,210.92,104.33,,,Single-ply,SBD,M,
Boys,67.13,DQ,Jacob Smith,Whitesboro,65.86,197.31,113.4,,,Single-ply,SBD,M,
Boys,67.13,DQ,Chris Graham #1,Wichita Falls City View,66.68,263.08,,,,Single-ply,SBD,M,
Boys,74.84,1,Greyson Blanchard,Celina,74.84,294.84,136.08,217.72,648.64,Single-ply,SBD,M,
Boys,74.84,2,Carson Stevens,Iowa Park,74.21,226.8,140.61,199.58,566.99,Single-ply,SBD,M,
Boys,74.84,3,Jesus Garcia #9,Lake Worth,74.12,204.12,127.01,213.19,544.31,Single-ply,SBD,M,
Boys,74.84,4,Jacob Tull,Farmersville,72.76,210.92,127.01,204.12,542.04,Single-ply,SBD,M,
Boys,74.84,5,Ethan Beason,Blue Ridge,72.76,195.04,138.35,197.31,530.7,Single-ply,SBD,M,
Boys,74.84,6,Arath Herrera,Kennedale,74.75,199.58,127.01,199.58,526.17,Single-ply,SBD,M,
Boys,74.84,7,Basey Mitchell,Millsap,71.94,204.12,117.93,195.04,517.1,Single-ply,SBD,M,
Boys,74.84,8,Logan Leal,Iowa Park,72.3,195.04,131.54,188.24,514.83,Single-ply,SBD,M,
Boys,74.84,9,Kason Major,Burkburnett,74.84,195.04,117.93,201.85,514.83,Single-ply,SBD,M,
Boys,74.84,10,Aldo Cereceres,Graham,74.39,197.31,106.59,195.04,498.95,Single-ply,SBD,M,
Boys,74.84,DQ,Luis Ordoñez,Dublin,74.39,179.17,,,,Single-ply,SBD,M,
Boys,74.84,DQ,Anthony Henry,Gainesville,71.49,197.31,111.13,,,Single-ply,SBD,M,
Boys,74.84,DQ,Taylor Kern,Krum,74.84,,,,,Single-ply,SBD,M,
Boys,74.84,DQ,Jayson Cave,Melissa,74.84,,,,,Single-ply,SBD,M,
Boys,74.84,DQ,Christopher Laxamana,Wichita Falls Hirschi,74.84,,,,,Single-ply,SBD,M,
Boys,82.1,1,Yovanni Juarez,Gainesville,82.01,310.71,201.85,244.94,757.5,Single-ply,SBD,M,
Boys,82.1,2,Colby Stinedurf,Farmersville,77.84,297.1,183.7,256.28,737.09,Single-ply,SBD,M,
Boys,82.1,3,Jose Martinez,Celina,82.1,254.01,140.61,238.14,632.76,Single-ply,SBD,M,
Boys,82.1,4,Randall Hamilton,Jacksboro,80.2,256.28,145.15,210.92,612.35,Single-ply,SBD,M,
Boys,82.1,5,Joseph Perez,Peaster,81.28,226.8,129.27,226.8,582.87,Single-ply,SBD,M,
Boys,82.1,6,Ricky Matehuala,Celina,82.1,249.48,129.27,201.85,580.6,Single-ply,SBD,M,
Boys,82.1,7,Andrew Luong,Sunnyvale,82.1,204.12,108.86,197.31,510.29,Single-ply,SBD,M,
Boys,82.1,8,Mark Castle,Argyle,79.56,206.38,81.65,217.72,505.76,Single-ply,SBD,M,
Boys,82.1,9,Braden Waters,Kennedale,82.1,199.58,113.4,165.56,478.54,Single-ply,SBD,M,
Boys,82.1,DQ,Colton Ligon,Graham,82.01,208.65,127.01,,,Single-ply,SBD,M,
Boys,82.1,DQ,Jake Cook,Krum,82.1,,,,,Single-ply,SBD,M,
Boys,82.1,DQ,Carson Stamper,Sanger,82.1,,,,,Single-ply,SBD,M,
Boys,82.1,DQ,Adrian Baxter,Caddo Mills,82.1,,,,,Single-ply,SBD,M,
Boys,82.1,DQ,Jayce Morgan,Gainesville,82.1,,,,,Single-ply,SBD,M,
Boys,89.81,1,Ethan Cortez,Bangs,83.01,267.62,170.1,242.67,680.39,Single-ply,SBD,M,
Boys,89.81,2,Dwayne Wilson,Gainesville,85.91,299.37,145.15,224.53,669.05,Single-ply,SBD,M,
Boys,89.81,3,Gage Mauch,Lone Oak,84.19,267.62,147.42,219.99,635.03,Single-ply,SBD,M,
Boys,89.81,4,Mason Ford,Gainesville,88.9,229.06,172.37,233.6,635.03,Single-ply,SBD,M,
Boys,89.81,5,Jadonavan Williams,Quinlan Ford,86,249.48,154.22,226.8,630.49,Single-ply,SBD,M,
Boys,89.81,6,Dillon Inman,Boyd,82.92,244.94,151.95,226.8,623.69,Single-ply,SBD,M,
Boys,89.81,7,Tristan Perez #1,Wichita Falls Hirschi,88.99,238.14,142.88,215.46,596.47,Single-ply,SBD,M,
Boys,89.81,8,Jordain Durham,Wichita Falls City View,87,226.8,136.08,226.8,589.67,Single-ply,SBD,M,
Boys,89.81,9,Aldo Calvillo,Millsap,89.45,226.8,120.2,206.38,553.38,Single-ply,SBD,M,
Boys,89.81,10,Raul Hernandez,Howe,88.9,204.12,113.4,215.46,532.97,Single-ply,SBD,M,
Boys,89.81,11,Kendrick Greer,Commerce,88.99,222.26,106.59,204.12,532.97,Single-ply,SBD,M,
Boys,89.81,DQ,Caden Joyce,Anna,89.81,235.87,142.88,,,Single-ply,SBD,M,
Boys,89.81,DQ,Wade Rouser,Lone Oak,88.9,,,,,Single-ply,SBD,M,
Boys,99.79,1,Christian Holmes,Comanche,94.53,249.48,174.63,238.14,662.24,Single-ply,SBD,M,
Boys,99.79,2,Shane Davis,Whitewright,97.61,267.62,179.17,213.19,659.98,Single-ply,SBD,M,
Boys,99.79,3,Chase Bunnell,Argyle,99.25,242.67,138.35,278.96,659.98,Single-ply,SBD,M,
Boys,99.79,4,Nick Taylor,Boyd,98.43,249.48,151.95,242.67,644.1,Single-ply,SBD,M,
Boys,99.79,5,Adrian Alaniz,Quinlan Ford,99.79,254.01,167.83,208.65,630.49,Single-ply,SBD,M,
Boys,99.79,6,Cameron Carroll,Ponder,93.35,242.67,154.22,231.33,628.23,Single-ply,SBD,M,
Boys,99.79,7,Kaiden Roden,Quinlan Ford,93.8,238.14,161.03,217.72,616.89,Single-ply,SBD,M,
Boys,99.79,8,Brad Kissinger,Celina,95.62,265.35,136.08,208.65,610.08,Single-ply,SBD,M,
Boys,99.79,DQ,Zack Shivers,Brock,95.16,,,,,Single-ply,SBD,M,
Boys,99.79,DQ,Sean Newark,Caddo Mills,96.25,238.14,151.95,,,Single-ply,SBD,M,
Boys,99.79,DQ,Zach Clark,Iowa Park,98.79,249.48,,,,Single-ply,SBD,M,
Boys,99.79,DQ,Landon Nelson,Bells,98.07,263.08,136.08,,,Single-ply,SBD,M,
Boys,109.77,1,Jesse Coffey #2,Gainesville,109.41,285.76,204.12,222.26,712.14,Single-ply,SBD,M,
Boys,109.77,2,Kamron Rogers,Leonard,106.68,278.96,161.03,215.46,655.44,Single-ply,SBD,M,
Boys,109.77,3,Alex Swartz,Krum,102.42,274.42,163.29,213.19,650.91,Single-ply,SBD,M,
Boys,109.77,4,Jackson Younger,Nevada Community,105.87,260.82,156.49,219.99,637.3,Single-ply,SBD,M,
Boys,109.77,5,Jaden Luhn,Lone Oak,109.32,297.1,129.27,210.92,637.3,Single-ply,SBD,M,
Boys,109.77,6,Mosiah Lolohea,Dublin,105.41,240.4,156.49,231.33,628.23,Single-ply,SBD,M,
Boys,109.77,7,Coby Arledge,Iowa Park,104.33,240.4,154.22,222.26,616.89,Single-ply,SBD,M,
Boys,109.77,8,Corjohnta Dunbar,Commerce,104.69,215.46,147.42,240.4,603.28,Single-ply,SBD,M,
Boys,109.77,9,Ethan Pesina,Brownwood,106.96,242.67,149.69,204.12,596.47,Single-ply,SBD,M,
Boys,109.77,10,Christopher Washington,Kennedale,103.42,197.31,154.22,238.14,589.67,Single-ply,SBD,M,
Boys,109.77,11,Diyan Pun,Sunnyvale,105.6,226.8,163.29,188.24,578.33,Single-ply,SBD,M,
Boys,109.77,DQ,Jonathan Trejo,Breckenridge,109.77,254.01,,,,Single-ply,SBD,M,
Boys,109.77,DQ,Reese Young,Stephenville,109.77,,,,,Single-ply,SBD,M,
Boys,124.74,1,Colt Cooper,Quinlan Ford,110.5,331.12,195.04,285.76,811.93,Single-ply,SBD,M,
Boys,124.74,2,Brad Robinson,Brownwood,118.57,290.3,170.1,251.74,712.14,Single-ply,SBD,M,
Boys,124.74,3,Jacob Gallardo,Van Alstyne,115.67,285.76,165.56,251.74,703.07,Single-ply,SBD,M,
Boys,124.74,4,Junior Seay,Kennedale,120.47,285.76,181.44,235.87,703.07,Single-ply,SBD,M,
Boys,124.74,5,Bryan Arellano,Bowie,111.77,294.84,190.51,197.31,682.66,Single-ply,SBD,M,
Boys,124.74,6,Mason Hill,Wichita Falls City View,117.3,281.23,142.88,256.28,680.39,Single-ply,SBD,M,
Boys,124.74,7,Brandon Woods,Whitewright,111.22,272.16,165.56,213.19,650.91,Single-ply,SBD,M,
Boys,124.74,8,Austin Criswell,Argyle,119.2,292.57,127.01,224.53,644.1,Single-ply,SBD,M,
Boys,124.74,9,Stevie Hopper,Nevada Community,118.3,256.28,142.88,231.33,630.49,Single-ply,SBD,M,
Boys,124.74,10,Bryan DeLeon,Ponder,122.02,283.5,142.88,201.85,628.23,Single-ply,SBD,M,
Boys,124.74,11,Joshua Queneau,Nevada Community,114.58,258.55,165.56,195.04,619.15,Single-ply,SBD,M,
Boys,124.74,12,Hayden Meng,Burkburnett,111.31,231.33,122.47,238.14,591.94,Single-ply,SBD,M,
Boys,139.71,1,Bartolo Guevara,Boyd,127.91,340.19,170.1,249.48,759.77,Single-ply,SBD,M,
Boys,139.71,2,Jayden Parsons,Iowa Park,135.17,290.3,208.65,226.8,725.75,Single-ply,SBD,M,
Boys,139.71,3,Michael Reemts,Celina,130.73,317.51,142.88,244.94,705.34,Single-ply,SBD,M,
Boys,139.71,4,Brandon Ward,Melissa,138.16,317.51,145.15,226.8,689.46,Single-ply,SBD,M,
Boys,139.71,5,Hayden Philpot,Decatur,130.45,274.42,174.63,226.8,675.85,Single-ply,SBD,M,
Boys,139.71,6,Coleton Price,Bowie,125.01,288.03,145.15,217.72,650.91,Single-ply,SBD,M,
Boys,139.71,7,Noah Howell,Commerce,132.54,272.16,145.15,226.8,644.1,Single-ply,SBD,M,
Boys,139.71,8,Victor Juarez,Dublin,124.96,240.4,149.69,244.94,635.03,Single-ply,SBD,M,
Boys,139.71,9,Ayden Mast,Decatur,131.9,247.21,154.22,222.26,623.69,Single-ply,SBD,M,
Boys,139.71,10,Everett Stapleton,Commerce,126.73,254.01,138.35,226.8,619.15,Single-ply,SBD,M,
Boys,139.71,DQ,Ethan Thomas,Sadler S & S Consolidated,131.54,278.96,158.76,,,Single-ply,SBD,M,
Boys,139.71,DQ,Derek Patterson,Lone Oak,127.91,278.96,131.54,,,Single-ply,SBD,M,
Boys,139.71+,1,Elijah McFarland,Bonham,210.65,249.48,242.67,244.94,737.09,Single-ply,SBD,M,
Boys,139.71+,2,Logan Davis,Stephenville,145.42,272.16,165.56,267.62,705.34,Single-ply,SBD,M,
Boys,139.71+,3,Brendan Armijo,Celina,142.88,303.91,181.44,215.46,700.8,Single-ply,SBD,M,
Boys,139.71+,4,Jacob Scott,Pilot Point,155.67,294.84,142.88,244.94,682.66,Single-ply,SBD,M,
Boys,139.71+,5,Gavin Emerson,Gainesville,140.52,260.82,210.92,192.78,664.51,Single-ply,SBD,M,
Boys,139.71+,6,Jayston Jones,Commerce,145.15,254.01,188.24,208.65,650.91,Single-ply,SBD,M,
Boys,139.71+,7,Colby Henry #1,Kennedale,186.52,281.23,142.88,226.8,650.91,Single-ply,SBD,M,
Boys,139.71+,8,Gavyn Sharp,Stephenville,150.23,254.01,151.95,204.12,610.08,Single-ply,SBD,M,
Boys,139.71+,9,Richard Battson,Caddo Mills,146.15,258.55,138.35,201.85,598.74,Single-ply,SBD,M,
Boys,139.71+,10,Bill Overton,Argyle,163.38,251.74,129.27,204.12,585.13,Single-ply,SBD,M,
Boys,139.71+,DQ,Cooper Emerson,Gainesville,148.78,249.48,,,,Single-ply,SBD,M,
Boys,139.71+,DQ,Wade Graves,Whitesboro,139.89,213.19,174.63,,,Single-ply,SBD,M,
