Division,WeightClassKg,Place,Name,Team,BodyweightKg,Best3SquatKg,Best3BenchKg,Best3DeadliftKg,TotalKg,Equipment,Event,Sex
Boys,51.71,1,Danny Sowell,Shepherd,50.08,106.59,54.43,106.59,267.62,Single-ply,SBD,M
Boys,55.79,1,Clayton Coogler,Shepherd,55.43,129.27,61.23,129.27,319.78,Single-ply,SBD,M
Boys,59.87,1,Chase Watson,Shepherd,59.24,170.1,92.99,133.81,396.89,Single-ply,SBD,M
Boys,67.13,1,Tyler Murphy,Warren,66.86,188.24,104.33,206.38,498.95,Single-ply,SBD,M
Boys,67.13,2,Trinity Morris,Warren,67.04,149.69,124.74,170.1,444.52,Single-ply,SBD,M
Boys,67.13,3,Haze Richey,Shepherd,65.86,170.1,97.52,163.29,430.91,Single-ply,SBD,M
Boys,67.13,4,Chad Currie,Coldspring-Oakhurst,66.13,167.83,97.52,158.76,424.11,Single-ply,SBD,M
Boys,67.13,5,Serlyn Rivera,Winnie East Chambers,64.95,149.69,92.99,156.49,399.16,Single-ply,SBD,M
Boys,67.13,6,Juan Carapia,Shepherd,65.32,142.88,72.57,156.49,371.95,Single-ply,SBD,M
Boys,67.13,7,Zac Jenkins,Shepherd,63.14,142.88,65.77,158.76,367.41,Single-ply,SBD,M
Boys,67.13,8,Chase Long,Cleveland Tarkington,63.5,120.2,74.84,158.76,353.8,Single-ply,SBD,M
Boys,67.13,9,Chace Soignet,Warren,63.5,129.27,81.65,142.88,353.8,Single-ply,SBD,M
Boys,67.13,10,Jayden Landry,Anahuac,64.23,129.27,74.84,140.61,344.73,Single-ply,SBD,M
Boys,67.13,11,Will Whitaker,Shepherd,60.96,120.2,70.31,124.74,315.25,Single-ply,SBD,M
Boys,67.13,12,Joseph Hlavaty,Cleveland Tarkington,66.68,113.4,63.5,136.08,312.98,Single-ply,SBD,M
Boys,67.13,13,Coltin Anglin,Cleveland Tarkington,63.5,92.99,74.84,129.27,297.1,Single-ply,SBD,M
Boys,67.13,14,Jose Vasquez,Shepherd,64.05,86.18,61.23,108.86,256.28,Single-ply,SBD,M
Boys,67.13,15,Jacob Odstrcil,Shepherd,60.69,86.18,54.43,102.06,242.67,Single-ply,SBD,M
Boys,67.13,DQ,Cameron Carson,Shepherd,66.68,127.01,,,,Single-ply,SBD,M
Boys,74.84,1,Colton Boatright,Shepherd,68.86,190.51,124.74,192.78,508.02,Single-ply,SBD,M
Boys,74.84,2,Eddie Cross,Coldspring-Oakhurst,71.12,183.7,108.86,199.58,492.15,Single-ply,SBD,M
Boys,74.84,3,Brandon Cheves,Shepherd,73.03,195.04,104.33,181.44,480.81,Single-ply,SBD,M
Boys,74.84,4,Kolby Hvamstad,Cleveland Tarkington,73.94,158.76,95.25,170.1,424.11,Single-ply,SBD,M
Boys,74.84,5,Christopher Moulton,Anahuac,71.3,149.69,79.38,158.76,387.82,Single-ply,SBD,M
Boys,74.84,6,Taylor Stutts,Cleveland Tarkington,72.03,142.88,74.84,142.88,360.61,Single-ply,SBD,M
Boys,74.84,7,Jacob Galle,Sour Lake Hardin-Jefferson,71.85,127.01,77.11,154.22,358.34,Single-ply,SBD,M
Boys,74.84,8,James Harrison,Shepherd,70.94,136.08,68.04,151.95,356.07,Single-ply,SBD,M
Boys,74.84,9,Crystian Zuniga,Winnie East Chambers,73.12,129.27,81.65,136.08,347,Single-ply,SBD,M
Boys,74.84,10,Tristan Conner,Sour Lake Hardin-Jefferson,72.67,104.33,74.84,142.88,322.05,Single-ply,SBD,M
Boys,74.84,11,Mark Rodriguez,Winnie East Chambers,69.67,102.06,68.04,142.88,312.98,Single-ply,SBD,M
Boys,74.84,12,Dylan Cahoe,Cleveland Tarkington,74.39,90.72,70.31,127.01,288.03,Single-ply,SBD,M
Boys,74.84,13,Daniel Vasquez,Shepherd,70.67,102.06,61.23,113.4,276.69,Single-ply,SBD,M
Boys,74.84,DQ,Charlie Hayman,Sour Lake Hardin-Jefferson,73.84,170.1,95.25,,,Single-ply,SBD,M
Boys,82.1,1,River Lucy,Liberty,80.2,215.46,127.01,199.58,542.04,Single-ply,SBD,M
Boys,82.1,2,Jarius Williams,Warren,81.1,210.92,117.93,213.19,542.04,Single-ply,SBD,M
Boys,82.1,3,Demarcus Stelly,Winnie East Chambers,81.19,188.24,142.88,158.76,489.88,Single-ply,SBD,M
Boys,82.1,4,Deon Mayes,Anahuac,77.47,183.7,104.33,199.58,487.61,Single-ply,SBD,M
Boys,82.1,5,Perry Evans,Liberty,77.84,170.1,133.81,174.63,478.54,Single-ply,SBD,M
Boys,82.1,6,Darryl Davis,Cleveland Tarkington,78.2,174.63,106.59,179.17,460.4,Single-ply,SBD,M
Boys,82.1,7,Kameron O'Bannion,Sour Lake Hardin-Jefferson,77.38,156.49,90.72,163.29,410.5,Single-ply,SBD,M
Boys,82.1,8,Brandon Haltom,Cleveland Tarkington,81.1,147.42,86.18,165.56,399.16,Single-ply,SBD,M
Boys,89.81,1,Andrew Harrison,Coldspring-Oakhurst,86.45,231.33,127.01,256.28,614.62,Single-ply,SBD,M
Boys,89.81,2,Cesar Molina,Anahuac,87.91,210.92,158.76,233.6,603.28,Single-ply,SBD,M
Boys,89.81,3,Tyler Shirey,Shepherd,88.99,215.46,151.95,206.38,573.79,Single-ply,SBD,M
Boys,89.81,4,Devon Walker,Liberty,88,195.04,133.81,233.6,562.45,Single-ply,SBD,M
Boys,89.81,5,Ethan Benestante,Coldspring-Oakhurst,83.46,197.31,136.08,208.65,542.04,Single-ply,SBD,M
Boys,89.81,6,Keel Trey,Shepherd,84.55,226.8,104.33,206.38,537.51,Single-ply,SBD,M
Boys,89.81,7,Hunter McNair,Sour Lake Hardin-Jefferson,85.55,192.78,111.13,201.85,505.76,Single-ply,SBD,M
Boys,89.81,8,Tyrine Evans,Liberty,85.28,185.97,106.59,183.7,476.27,Single-ply,SBD,M
Boys,89.81,9,Thomas Lopez,Sour Lake Hardin-Jefferson,89.09,158.76,88.45,181.44,428.64,Single-ply,SBD,M
Boys,89.81,10,Luke Evans #1,Sour Lake Hardin-Jefferson,88.63,142.88,88.45,156.49,387.82,Single-ply,SBD,M
Boys,89.81,11,Thomas Marcum,Warren,86.82,142.88,83.91,158.76,385.55,Single-ply,SBD,M
Boys,89.81,12,Cameron Hicks,Liberty,86.27,97.52,95.25,124.74,317.51,Single-ply,SBD,M
Boys,99.79,1,Brad Neal,Dayton,98.07,219.99,161.03,222.26,603.28,Single-ply,SBD,M
Boys,99.79,2,Tony David,Liberty,97.34,210.92,142.88,215.46,569.26,Single-ply,SBD,M
Boys,99.79,3,Evan Wilson,Liberty,91.63,213.19,129.27,222.26,564.72,Single-ply,SBD,M
Boys,99.79,4,Logan Gusman,Liberty,99.79,181.44,104.33,192.78,478.54,Single-ply,SBD,M
Boys,99.79,5,Nick Eason,Warren,98.07,185.97,97.52,181.44,464.93,Single-ply,SBD,M
Boys,99.79,6,Dylan Broussard,Anahuac,92.8,158.76,90.72,181.44,430.91,Single-ply,SBD,M
Boys,99.79,7,Taylor Hankamer,Anahuac,91.35,149.69,86.18,183.7,419.57,Single-ply,SBD,M
Boys,99.79,8,Kole Leger,Warren,95.8,151.95,92.99,161.03,405.97,Single-ply,SBD,M
Boys,99.79,9,Noah McGallion,Warren,97.7,161.03,106.59,136.08,403.7,Single-ply,SBD,M
Boys,99.79,DQ,Juan Perez #1,Anahuac,96.8,133.81,,,,Single-ply,SBD,M
Boys,109.77,1,Marquise Redmon,Liberty,105.14,251.74,165.56,281.23,698.53,Single-ply,SBD,M
Boys,109.77,2,Zane Conner,Sour Lake Hardin-Jefferson,109.41,249.48,154.22,269.89,673.58,Single-ply,SBD,M
Boys,109.77,3,Alvaro Andrade,Hamshire-Fannett,109.77,226.8,147.42,215.46,589.67,Single-ply,SBD,M
Boys,109.77,4,Dylan Lugo,Anahuac,109.77,215.46,145.15,190.51,551.11,Single-ply,SBD,M
Boys,109.77,5,Michael Stubblefield,Cleveland Tarkington,107.77,201.85,117.93,174.63,494.42,Single-ply,SBD,M
Boys,109.77,6,Dillan Lucier,Warren,105.87,170.1,111.13,183.7,464.93,Single-ply,SBD,M
Boys,109.77,7,Mason Phillips,Sour Lake Hardin-Jefferson,109.77,129.27,92.99,154.22,376.48,Single-ply,SBD,M
Boys,109.77,DQ,Peyton McCormick,Cleveland Tarkington,107.23,,,,,Single-ply,SBD,M
Boys,109.77,DQ,Cameron Mayes,Anahuac,108.86,,,,,Single-ply,SBD,M
Boys,124.74,1,David McCoy,Sour Lake Hardin-Jefferson,123.74,235.87,113.4,217.72,566.99,Single-ply,SBD,M
Boys,124.74,2,Zach Taylor,Shepherd,119.66,229.06,129.27,197.31,555.65,Single-ply,SBD,M
Boys,124.74,3,JG Head,Cleveland Tarkington,113.94,204.12,129.27,197.31,530.7,Single-ply,SBD,M
Boys,124.74,4,Raul Gonzalez,Liberty,115.3,213.19,111.13,201.85,526.17,Single-ply,SBD,M
Boys,124.74,5,Aaron Shutter,Warren,114.76,192.78,122.47,197.31,512.56,Single-ply,SBD,M
Boys,124.74,6,Colton Haynes,Warren,113.76,167.83,104.33,192.78,464.93,Single-ply,SBD,M
Boys,124.74,7,Garrett Nelson,Anahuac,122.65,136.08,77.11,136.08,349.27,Single-ply,SBD,M
Boys,124.74,DQ,James Tousha,Liberty,120.47,,,,,Single-ply,SBD,M
Boys,124.74,DQ,Hunter Crooks,Dayton,119.02,,,,,Single-ply,SBD,M
Boys,124.74+,1,Merel Bunfill,Liberty,142.52,285.76,183.7,235.87,705.34,Single-ply,SBD,M
Boys,124.74+,2,Daren Lugo,Anahuac,132.63,247.21,174.63,183.7,605.55,Single-ply,SBD,M
Boys,124.74+,3,Codi Leger,Hamshire-Fannett,127.01,254.01,124.74,183.7,562.45,Single-ply,SBD,M
Boys,124.74+,4,Julian Sullivan,Cleveland Tarkington,149.96,231.33,113.4,204.12,548.85,Single-ply,SBD,M
Boys,124.74+,5,Michael Jauer,Sour Lake Hardin-Jefferson,151.32,206.38,140.61,183.7,530.7,Single-ply,SBD,M
Boys,124.74+,6,William Orozco,Anahuac,126.28,154.22,106.59,181.44,442.25,Single-ply,SBD,M
Boys,124.74+,DQ,Jesse Simien,Winnie East Chambers,125.19,,,,,Single-ply,SBD,M
